<?xml version="1.0" standalone="no"?>
<!DOCTYPE svg PUBLIC "-//W3C//DTD SVG 1.1//EN" "http://www.w3.org/Graphics/SVG/1.1/DTD/svg11.dtd">
<svg xmlns="http://www.w3.org/2000/svg">
<metadata>Copyright (C) 2016 by original authors @ fontello.com</metadata>
<defs>
<font id="fontello" horiz-adv-x="1000" >
<font-face font-family="fontello" font-weight="400" font-stretch="normal" units-per-em="1000" ascent="850" descent="-150" />
<missing-glyph horiz-adv-x="1000" />
<glyph glyph-name="search" unicode="&#xe800;" d="M0-41q0 47 33 80l260 260q-43 82-43 176 0 154 109 265t266 110 266-110 109-266-109-265-266-109q-94 0-176 43l-260-260q-33-33-80-33-45 0-77 32t-32 77z m55 1q0-22 16-39t39-16 40 17l252 252q-45 33-78 78l-252-252q-17-17-17-40z m258 515q0-129 91-221t221-91 221 91 91 221-91 221-221 91-221-91-91-221z m93 0q0 90 65 154t154 65q16 0 16-16t-16-16q-78 0-133-54t-54-133q0-16-16-16t-16 16z" horiz-adv-x="1000" />

<glyph glyph-name="money" unicode="&#xe801;" d="M3 243q31 97 107 173 59 61 203 145 129 74 178 123 55 55 74 121 6 16 16 27 14 12 29 16 35 8 61-16l312-312q26-27 16-63-31-99-108-173-58-61-203-145-129-74-177-123-55-53-75-121-6-16-15-27-14-12-30-16-35-8-60 16l-313 312q-25 27-15 63z m60-18l99-99 115-115 99-99q25 79 84 140t128 102l138 80t129 101 83 140l-157 157-155 155q-24-78-83-139t-129-102l-139-80t-128-101-84-140z m274-199l21 29q22 27 47 53 22 23 55 49 11 9 21 0 12-12 0-24l-2 0q-31-25-52-47-24-23-43-48l-20-28q-2-2-2-4-12-12-23 0-8 10-2 20z m27 359q2 18 10 33 8 18 19 32 0 2-5 5-4 2-4 7t4 10 8 5 7-4q4-4 8-6 8 8 20 16t28 12 29 1 24-15q8-8 8-18t-8-15q-5-6-15-4-6 2-18 4-9 4-20 3t-23-11q20-20 51-57 14 8 31 14 16 6 32 8t31-3 31-17q14-12 20-25 4-14 2-30 0-15-10-33-8-19-22-37 8-6 16-13 4-2 5-7t-3-9-9-5-9 3q-9 8-15 16-18-18-35-24-16-6-34-6-15 2-28 8t-20 15-8 17 8 16 13 7 13-3 13-8 13-7 17 0 20 12q-21 21-56 62-32-17-65-19-29-2-50 15-14 12-20 26t-4 29z m42 11q-1-7 1-14t8-10q10-10 22-9t33 10q-30 32-49 51-6-8-10-14t-5-14z m112 143q-9 10 0 22 2 2 4 2 32 25 53 47 23 23 43 49l19 27q2 4 4 4 12 12 22 0 10-10 2-22l-22-29q-21-27-47-53-21-23-54-48-12-10-24 1z m4-195q32-35 53-56 6 5 10 13t6 16 0 14-9 14-15 9-15 1-16-5q-4-2-14-6z" horiz-adv-x="1001" />

<glyph glyph-name="pencil" unicode="&#xe802;" d="M0-41q0 4 1 8t1 8 1 8 1 6l0 2 74 267q10 31 31 53l325 324 0 2 2 2 150 152q60 59 146 59 106 0 186-80 74-74 81-171t-58-161l-476-481q-24-23-55-31l-263-70-3-1q-3-1-7-2t-9-1-10-1-9-1q-45 0-77 32t-32 77z m63 0q0-19 13-33t33-14q6 0 22 4l115 32q4 58-43 105-45 45-105 43l-32-119q-3-14-3-18z m44 168q67-2 118-52t52-120l116 30 11 6q41 47 34 115t-61 121q-51 49-115 59t-112-24q-7-10-11-21z m131 225q45-2 90-20l295 295q-88 22-144-33z m119-35q38-20 65-45 21-22 41-55l297 299q-16 31-39 55-30 29-67 45z m122-129q17-41 21-82l0-24 242 245 0 2q61 60 31 156z m101 508q106 0 186-80 70-73 78-166l0-22 52 55q45 45 41 111-5 74-62 131-63 62-143 62-60 0-101-41z" horiz-adv-x="1000" />

<glyph glyph-name="desktop" unicode="&#xe803;" d="M0 100l0 625q0 39 27 66t67 28l812 0q39 0 67-28t27-66l0-625q0-39-27-66t-67-28l-312 0 0-37 195-25q23-6 23-32 0-13-8-22t-23-9l-562 0q-14 0-23 9t-8 22q0 26 23 32l195 25 0 37-312 0q-39 0-67 28t-27 66z m63 0q0-14 8-22t23-9l812 0q14 0 23 9t8 22l0 625q0 14-8 22t-23 9l-812 0q-14 0-23-9t-8-22l0-625z m62 125l0 437q0 14 9 23t22 9l688 0q13 0 22-9t9-23l0-437q0-14-9-22t-22-9l-688 0q-13 0-22 9t-9 22z m31 0l688 0 0 437-688 0 0-437z" horiz-adv-x="1000" />

<glyph glyph-name="my-issue" unicode="&#xe804;" d="M0-25l0 750q0 39 27 66t67 28l656 0q25 0 45-18l187-187q18-20 18-45l0-594q0-39-27-66t-67-28l-812 0q-39 0-67 28t-27 66z m63 0q0-14 8-23t23-8l812 0q14 0 23 8t8 23l0 563-124 0q-40 0-67 27t-27 66l0 125-625 0q-14 0-23-9t-8-22l0-750z m62 78q0 16 16 16l718 0q16 0 16-16t-16-15l-718 0q-16 0-16 15z m0 94q0 16 16 16l718 0q16 0 16-16t-16-16l-718 0q-16 0-16 16z m0 94q0 15 16 15l718 0q16 0 16-15t-16-16l-718 0q-16 0-16 16z m0 93q0 16 16 16l718 0q16 0 16-16t-16-15l-718 0q-16 0-16 15z m0 110l0 187q0 14 9 23t22 8l219 0q14 0 22-8t9-23l0-187q0-14-9-23t-22-8l-219 0q-13 0-22 8t-9 23z m63 31l156 0 0 125-156 0 0-125z m281-47q0 16 15 16l375 0q16 0 16-16t-16-15l-375 0q-15 0-15 15z m0 94q0 16 15 16l157 0q15 0 15-16t-15-16l-157 0q-15 0-15 16z m0 94q0 15 15 15l157 0q15 0 15-15t-15-16l-157 0q-15 0-15 16z m281 15q0-25 19-44t43-18l125 0-187 187 0-125z" horiz-adv-x="1000" />

<glyph glyph-name="comment" unicode="&#xe805;" d="M0 413q0 156 147 265t353 109 354-109 146-265-146-266-354-109q-47 0-96 7-29-35-89-78t-122-55l-9 0q-12 0-20 8t-8 20q0 6 2 12 0 1 13 21t18 29 13 30 13 36 4 32l0 2q-102 53-160 134t-59 177z m63 0q0-75 48-143t137-111q33-18 33-57l0-6q0-41-21-92 60 37 95 80 18 24 49 24 4 0 8-2 45-6 88-6 182 0 310 92t127 221-127 220-310 92-310-92-127-220z m93 0q0 89 102 154t242 64q16 0 16-15t-16-16q-125 0-219-57t-93-130q0-16-16-16t-16 16z" horiz-adv-x="1000" />

<glyph glyph-name="card" unicode="&#xe806;" d="M970 480q38-10 30-46l-150-556q-4-16-18-23t-30-3l-406 110q-16 4-24 18t-4 28l24 92-180-48q-40-10-50 26l-160 602q-10 36 28 48l454 122q16 4 30-3t18-23l66-244z m-888 190l144-542 392 106-144 540z m702-742l132 492-298 82 76-282q10-34-28-46l-196-52-26-102z" horiz-adv-x="1001" />

<glyph glyph-name="my-draft" unicode="&#xe807;" d="M819 638q16-16 27-42t11-50v-642q0-23-15-38t-38-16h-750q-23 0-38 16t-16 38v892q0 23 16 38t38 16h500q22 0 49-11t42-27z m-248 136v-210h210q-5 16-12 23l-175 175q-6 7-23 12z m215-853v572h-232q-23 0-38 15t-16 38v233h-429v-858h715z m-572 483q0 7 5 12t13 5h393q8 0 13-5t5-12v-36q0-8-5-13t-13-5h-393q-8 0-13 5t-5 13v36z m411-125q8 0 13-5t5-13v-36q0-8-5-13t-13-5h-393q-8 0-13 5t-5 13v36q0 8 5 13t13 5h393z m0-143q8 0 13-5t5-13v-36q0-8-5-13t-13-5h-393q-8 0-13 5t-5 13v36q0 8 5 13t13 5h393z" horiz-adv-x="857.1" />

<glyph glyph-name="setting" unicode="&#xe808;" d="M0 307l0 86q0 21 15 39t36 22l96 19q5 20 15 41l-53 80q-13 20-10 42t18 38l59 59q19 19 45 19 19 0 35-11l80-53q21 10 41 16l20 95q3 22 21 36t39 15l86 0q21 0 39-15t22-36l19-95q20-6 41-16l80 53q16 11 35 11 26 0 45-19l59-59q17-15 19-38t-11-42l-53-80q10-21 16-41l95-19q22-4 36-22t15-39l0-86q0-21-15-39t-36-21l-95-20q-6-20-16-41l53-80q13-20 11-42t-19-38l-59-59q-19-19-45-19-19 0-35 11l-80 53q-21-10-41-16l-19-95q-4-22-22-36t-39-15l-86 0q-21 0-39 14t-21 37l-20 95q-20 6-41 16l-80-53q-16-11-35-11-26 0-45 19l-59 59q-15 15-18 38t10 42l53 80q-10 21-15 41l-96 20q-22 3-36 21t-15 39z m63 0l95-19q35-6 47-40 6-17 14-35 15-31-4-60l-55-82 61-61 82 55q15 10 33 10 16 0 27-6 18-8 35-14 34-12 40-47l19-96 86 0 20 96q5 35 39 47 17 6 35 14 11 6 27 6 18 0 33-10l82-55 61 61-55 82q-19 29-4 60 8 18 14 35 12 34 47 40l95 19 0 86-95 20q-35 5-47 39-6 17-14 35-15 31 4 60l55 82-61 61-82-55q-15-10-33-10-16 0-27 6-18 8-35 14-34 12-39 47l-20 95-86 0-19-95q-6-35-40-47-17-6-35-14-11-6-27-6-18 0-33 10l-82 55-61-61 55-82q19-29 4-60-8-18-14-35-12-34-47-39l-95-20 0-86z m218 43q0 90 65 154t154 65 154-65 65-154-65-154-154-65-154 65-65 154z m28 0q0-80 55-136t136-55 136 55 55 136-55 136-136 55-136-55-55-136z m66 0q0 53 36 89t89 36 89-37 36-89-36-88-89-36-89 36-36 89z m31 0q0-39 28-66t66-28 66 28 28 66-28 66-66 28-66-28-28-66z" horiz-adv-x="1000" />

<glyph glyph-name="facebook" unicode="&#xe809;" d="M535 843v-147h-87q-48 0-65-20t-17-60v-106h164l-22-165h-142v-424h-171v424h-142v165h142v122q0 104 58 161t155 57q82 0 127-7z" horiz-adv-x="571.4" />

<glyph glyph-name="twitter" unicode="&#xe80a;" d="M904 622q-37-54-90-93 0-8 0-23 0-73-21-145t-64-139-103-117-144-82-181-30q-151 0-276 81 19-2 43-2 126 0 224 77-59 1-105 36t-64 89q19-3 34-3 24 0 48 6-63 13-104 62t-41 115v2q38-21 82-23-37 25-59 64t-22 86q0 49 25 91 68-83 164-133t208-55q-5 21-5 41 0 75 53 127t127 53q79 0 132-57 61 12 114 44-20-64-79-100 52 6 104 28z" horiz-adv-x="928.6" />

<glyph glyph-name="whatsapp" unicode="&#xe80b;" d="M550 306q7 0 54-24t50-30q1-2 1-8 0-18-9-42-9-22-40-37t-57-15q-32 0-106 35-55 25-95 66t-82 103q-41 60-40 108v5q2 50 41 88 14 12 29 12 4 0 10-1t11-1q11 0 15-3t8-16q5-11 19-49t14-42q0-11-19-32t-20-26q0-3 3-8 19-41 57-76 31-30 84-57 7-4 13-4 8 0 30 27t29 27z m-114-295q71 0 136 28t112 74 75 112 28 136-28 136-75 112-112 75-136 28-135-28-112-75-75-112-28-136q0-113 67-205l-44-130 135 43q88-58 192-58z m0 771q86 0 164-34t134-89 90-135 33-163-33-163-90-134-134-90-164-34q-108 0-203 53l-233-75 76 226q-60 99-60 217 0 86 33 163t90 135 134 89 163 34z" horiz-adv-x="857.1" />

<glyph glyph-name="tumblr" unicode="&#xe80c;" d="M527 108l44-132q-12-19-61-37t-99-18q-58-1-107 15t-79 41-53 59-31 67-9 66v304h-94v120q40 14 72 39t51 50 32 57 19 55 8 49q1 3 3 5t4 2h136v-237h186v-140h-186v-289q0-17 3-32t13-29 28-23 45-8q44 1 75 16z" horiz-adv-x="571.4" />

<glyph glyph-name="twitch" unicode="&#xe80d;" d="M500 608v-242h-81v242h81z m222 0v-242h-81v242h81z m0-424l141 141v444h-666v-585h182v-121l121 121h222z m222 666v-565l-242-242h-182l-121-122h-121v122h-222v646l61 161h827z" horiz-adv-x="1000" />

<glyph glyph-name="vine" unicode="&#xe80e;" d="M835 389v-111q-56-13-110-13-36-76-92-151t-102-120-71-60q-45-25-91 2-15 9-33 24t-48 47-57 72-60 102-59 136-51 176-39 217h158q14-121 39-222t58-177 68-131 78-109q94 94 160 227-79 40-124 122t-45 186q0 107 58 176t158 68q99 0 152-59t53-166q0-89-32-159-4-1-11-2t-26-1-35 3-34 14-28 29q17 58 17 103 0 48-16 73t-44 25q-30 0-48-27t-18-79q0-103 59-163t149-60q34 0 67 8z" horiz-adv-x="857.1" />

<glyph glyph-name="vimeo-squared" unicode="&#xe80f;" d="M700 495q9 47-12 73-29 36-104 25-10-1-23-7t-32-17-36-27-33-39-25-51q44 4 63-9t15-55q-3-29-29-80-24-43-40-55-24-18-48 8-13 13-21 36t-11 40-5 47-5 40q-13 72-19 92-7 20-20 38t-28 23q-32 8-71-14-30-18-76-60t-69-56v-4q9-5 15-15t12-11q11-2 30 5t32 6 24-17q6-10 10-22t8-26 7-23q10-26 30-104 20-82 32-110 23-56 57-70 24-7 48-1t42 18q73 43 139 132 59 77 97 163t46 127z m157 123v-536q0-66-47-113t-114-48h-535q-67 0-114 48t-47 113v536q0 66 47 113t114 48h535q67 0 114-48t47-113z" horiz-adv-x="857.1" />

<glyph glyph-name="wordpress" unicode="&#xe810;" d="M71 350q0 91 37 175l205-561q-109 53-176 157t-66 229z m719 22q0-11-2-22t-5-27-7-25-10-33-9-32l-43-143-155 461q26 2 49 4 11 1 15 11t-2 17-16 8l-114-6q-42 0-113 6-6 0-11-3t-6-9-1-10 5-9 11-5l44-4 67-183-94-281-156 464q26 2 49 4 11 1 15 11t-2 17-15 8l-115-6q-4 0-13 0t-14 0q58 90 153 142t205 52q82 0 157-29t133-84h-6q-31 0-51-22t-21-53q0-7 1-14t2-12 5-13 5-11 7-13 7-12 8-13 7-13q36-60 36-118z m-283-59l133-361q0-4 2-7-70-24-142-24-62 0-121 18z m369 243q53-97 53-206 0-117-58-215t-156-156l132 379q32 94 32 154 0 23-3 44z m-376 294q102 0 194-40t160-106 106-160 40-194-40-194-106-160-160-106-194-40-194 40-160 106-106 160-40 194 40 194 106 160 160 106 194 40z m0-977q97 0 185 38t152 102 102 152 38 185-38 185-102 152-152 102-185 38-185-38-152-102-102-152-38-185 38-185 102-152 152-102 185-38z" horiz-adv-x="1000" />

<glyph glyph-name="youtube" unicode="&#xe811;" d="M542 156v-118q0-37-22-37-13 0-25 12v168q12 12 25 12 22 0 22-37z m188-1v-25h-50v25q0 38 25 38t25-38z m-539 122h60v52h-174v-52h59v-318h55v318z m161-318h50v276h-50v-211q-17-23-32-23-10 0-11 11-1 2-1 20v203h-50v-218q0-28 5-41 7-21 32-21 27 0 57 34v-30z m240 83v110q0 41-5 55-10 31-40 31-28 0-52-30v121h-50v-370h50v27q25-31 52-31 30 0 40 31 5 15 5 56z m188 6v7h-51q0-29-1-34-4-20-22-20-26 0-26 38v49h100v57q0 44-15 65-22 28-59 28-38 0-60-28-15-21-15-65v-96q0-44 16-65 22-29 60-29 40 0 60 30 10 15 12 30 1 5 1 33z m-339 509v117q0 39-24 39t-24-39v-117q0-39 24-39t24 39z m401-419q0-131-14-195-8-33-33-56t-57-25q-102-12-309-12t-310 12q-32 3-57 25t-32 56q-15 62-15 195 0 131 15 195 7 33 32 56t57 26q103 11 310 11t309-11q33-4 57-26t33-56q14-62 14-195z m-557 712h57l-67-223v-151h-56v151q-8 42-34 119-21 57-37 104h60l39-147z m207-186v-97q0-46-16-66-21-29-59-29-38 0-59 29-15 21-15 66v97q0 45 15 65 21 29 59 29 38 0 59-29 16-20 16-65z m187 91v-279h-51v31q-30-35-58-35-25 0-33 21-4 13-4 42v220h51v-205q0-19 0-20 2-12 12-12 15 0 32 24v213h51z" horiz-adv-x="857.1" />

<glyph glyph-name="youtube-play" unicode="&#xe812;" d="M714 350q0 21-16 30l-286 179q-17 11-36 1-19-10-19-31v-358q0-21 19-31 9-4 17-4 11 0 19 5l286 179q16 9 16 30z m286 0q0-54-1-84t-4-76-13-82q-9-41-38-69t-70-32q-123-14-374-14t-374 14q-40 4-70 32t-39 69q-7 36-12 82t-4 76-1 84 1 84 4 76 13 82q9 41 38 69t70 32q123 14 374 14t374-14q40-4 70-32t39-69q8-36 12-82t4-76 1-84z" horiz-adv-x="1000" />

<glyph glyph-name="skype" unicode="&#xe813;" d="M655 257q0 28-11 51t-27 38-41 27-46 19-49 13l-58 14q-17 4-25 6t-19 6-17 9-9 12-4 16q0 43 80 43 24 0 43-6t30-16 21-19 23-16 27-7q26 0 42 18t16 43q0 31-32 55t-79 38-101 13q-38 0-74-9t-67-26-49-48-19-72q0-34 10-60t32-42 44-27 58-18l81-20q51-12 63-20 18-11 18-34 0-21-23-36t-58-14q-29 0-51 9t-37 22-25 25-26 21-30 9q-28 0-42-17t-14-41q0-52 68-88t162-37q41 0 78 10t69 30 49 52 19 74z m202-121q0-89-63-152t-151-63q-73 0-131 45-43-9-83-9-80 0-153 31t-126 84-83 125-31 153q0 41 9 84-45 58-45 130 0 89 63 152t151 63q73 0 131-45 43 9 84 9 79 0 152-31t126-84 83-125 31-153q0-41-9-84 45-58 45-130z" horiz-adv-x="857.1" />

<glyph glyph-name="pinterest" unicode="&#xe814;" d="M0 517q0 60 21 113t58 93 85 69 103 43 112 15q89 0 165-37t123-108 47-160q0-54-10-105t-34-99-56-83-81-58-105-21q-38 0-75 18t-54 49q-5-22-15-63t-14-53-11-40-15-39-17-35-26-44-35-48l-7-3-6 6q-8 88-8 105 0 51 12 115t37 161 29 113q-18 36-18 94 0 46 29 87t74 41q34 0 53-23t19-57q0-37-25-106t-24-105q0-35 25-58t61-23q31 0 57 14t44 38 31 53 21 61 11 62 4 56q0 96-61 150t-160 54q-111 0-186-72t-75-184q0-24 7-47t15-36 15-26 7-17q0-15-8-40t-21-25q-1 0-9 1-29 9-51 31t-34 53-18 60-6 60z" horiz-adv-x="714.3" />

<glyph glyph-name="pinterest-circled" unicode="&#xe815;" d="M857 350q0-117-57-215t-156-156-215-58q-62 0-122 18 33 52 43 92 5 19 31 118 11-22 40-38t64-16q67 0 120 38t83 105 29 151q0 64-34 119t-96 91-142 36q-59 0-110-17t-86-43-61-61-37-72-12-75q0-58 22-102t66-62q16-7 21 11 1 4 4 17t5 17q3 13-6 24-29 34-29 84 0 84 58 145t153 61q84 0 131-46t48-119q0-95-39-161t-98-67q-34 0-54 24t-13 59q4 19 15 52t16 57 7 43q0 27-15 46t-43 18q-35 0-59-31t-24-80q0-40 14-68l-55-233q-10-39-7-99-115 51-186 157t-71 236q0 117 58 215t155 156 216 58 215-58 156-156 57-215z" horiz-adv-x="857.1" />

<glyph glyph-name="reddit" unicode="&#xe816;" d="M842 53q0-8-7-17-29-33-82-46t-110-13q-140 0-193 59-6 9-6 17 0 9 6 16t17 7q8 0 16-7 33-27 70-36t89-10 90 10 70 36q9 7 17 7 10 0 16-7t7-16z m-296 218q0-34-24-58t-58-24q-34 0-59 24t-24 58q0 34 24 58t59 25 58-25 24-58z m359 0q0-34-24-58t-58-24q-33 0-58 24t-25 58q0 34 25 58t58 25 58-25 24-58z m-673 164q-22 15-49 15-37 0-64-26t-26-63q0-40 30-67 30 78 109 141z m895-229q0 124-139 216-71 47-162 71t-185 23-185-23-164-71q-138-92-138-216t138-216q72-47 164-71t185-23 185 23 162 71q139 92 139 216z m65 155q0 37-26 63t-63 26q-28 0-52-16 78-64 107-143 34 27 34 70z m-80 377q0 27-19 46t-46 20q-27 0-47-20t-19-46q0-27 19-46t47-19q27 0 46 19t19 46z m127-377q0-36-19-68t-49-50q3-20 3-37 0-78-45-143t-116-112q-78-51-175-76t-197-25-198 25-176 76q-72 47-116 112t-44 143q0 20 4 40-30 18-47 49t-17 66q0 56 40 96t96 40q50 0 88-34 148 95 356 99l81 255q5 16 22 16 13 0 214-51 14 31 41 50t62 18q46 0 79-33t32-79-32-79-79-33q-46 0-79 33t-33 78l-189 45-70-220q195-9 336-100 40 35 91 35 57 0 96-40t40-96z" horiz-adv-x="1285.7" />

<glyph glyph-name="linkedin" unicode="&#xe817;" d="M195 501v-553h-184v553h184z m12 171q0-41-29-68t-75-27h-1q-46 0-74 27t-28 68q0 41 29 68t75 27 74-27 29-68z m650-407v-317h-183v296q0 59-23 92t-71 33q-35 0-58-19t-36-48q-6-17-6-45v-309h-184q1 223 1 361t0 165l-1 27h184v-80h-1q11 18 23 31t31 29 49 24 64 9q95 0 153-63t58-186z" horiz-adv-x="857.1" />

<glyph glyph-name="instagram" unicode="&#xe818;" d="M760 54v362h-75q11-35 11-73 0-71-36-130t-97-94-134-35q-110 0-188 76t-78 183q0 38 11 73h-79v-362q0-14 10-24t25-10h596q14 0 24 10t10 24z m-158 298q0 69-51 118t-122 49q-71 0-121-49t-51-118 51-118 121-49q72 0 122 49t51 118z m158 201v92q0 15-11 27t-27 11h-98q-16 0-27-11t-11-27v-92q0-17 11-28t27-11h98q16 0 27 11t11 28z m97 116v-638q0-45-32-77t-78-33h-637q-45 0-78 33t-32 77v638q0 45 32 77t78 33h637q45 0 78-33t32-77z" horiz-adv-x="857.1" />

<glyph glyph-name="gplus" unicode="&#xe819;" d="M410 406q0-20 18-40t43-37 51-41 43-59 18-79q0-50-27-96-40-68-118-101t-166-32q-74 0-138 24t-95 76q-21 34-21 73 0 46 25 84t66 64q73 46 225 56-18 24-26 41t-9 41q0 20 12 48-26-3-38-3-83 0-139 54t-57 137q0 45 20 88t55 73q43 37 102 55t122 18h233l-77-49h-73q41-35 62-74t21-90q0-40-13-72t-33-52-39-36-33-34-14-37z m-81 53q21 0 43 10t37 24q30 32 30 89 0 32-10 69t-27 73-47 57-65 23q-24 0-46-11t-37-29q-26-33-26-89 0-26 5-55t18-57 29-52 42-37 54-15z m1-487q32 0 62 7t55 22 41 41 15 61q0 14-4 27t-8 24-15 23-16 19-22 20-20 16-23 16-21 15q-8 1-26 1-30 0-59-4t-60-14-54-25-38-42-15-59q0-39 19-69t51-46 67-25 71-8z m452 489h119v-60h-119v-122h-59v122h-118v60h118v121h59v-121z" horiz-adv-x="928.6" />

<glyph glyph-name="right-big" unicode="&#xe81a;" d="M13-20l358 370-358 372q-26 26 0 48 26 26 48 0l392-394q24-26 0-50l-392-394q-22-26-48 0-26 22 0 48z" horiz-adv-x="465" />

<glyph glyph-name="star" unicode="&#xe81b;" d="M4 457q14 41 57 47l262 39 113 235q19 41 64 41t65-41l113-235 262-39q43-6 56-47t-15-70l-192-191 43-264q8-43-29-68-18-14-41-14-18 0-35 8l-227 123-226-123q-18-8-35-8-24 0-41 14-38 25-30 68l43 264-189 191q-32 29-18 70z m69-21l191-191q25-26 19-61l-44-264 226 123q16 8 35 8t35-8l227-123-45 264q-6 35 20 61l191 191-260 37q-39 6-54 41l-114 234-113-234q-16-35-55-39z" horiz-adv-x="1001" />

<glyph glyph-name="fire" unicode="&#xe81c;" d="M0 135q0 76 18 167t33 156 13 170-33 222l20-14q19-13 51-44t64-69 65-97 48-118q63 94 65 186l31-35q29-36 61-106t31-139l15 20q16 21 33 60t16 75q96-119 135-251t10-249q-14-51-31-84t-56-68-107-50-169-17q-137 0-225 85t-88 200z m63 0q0-88 69-155t181-68q74 0 128 11t84 26 49 42 27 44 14 49q39 159-64 344-61-103-145-172 0 92-10 176t-25 113q-23-58-113-185 0 8-12 51t-44 122-75 137q8-125-33-310-31-143-31-225z m50-23q0 146 41 263l16 47 16-41q19-56 66-164 20 30 49 74l47 75 0-53q0-66 23-135 39 20 68 41t43 36 36 40l27 30 6-32q21-119-20-218-4-10-13-10-4 0-6 2-14 6-8 19 27 73 19 168-58-66-154-113l-15-6-6 16q-24 66-28 111-31-45-58-84l-16-21-12 23q-43 98-64 149-25-84-25-217 0-16-16-16t-16 16z" horiz-adv-x="688" />

<glyph glyph-name="video" unicode="&#xe81d;" d="M0 350q0 207 147 354t353 146 354-146 146-354-146-354-354-146-353 146-147 354z m115 0q0-158 114-271t271-114 271 114 114 271-114 272-271 113-271-113-114-272z m260-250l0 500 375-250z" horiz-adv-x="1000" />

<glyph glyph-name="path" unicode="&#xe81e;" d="M0 465q4 172 131 278 135 105 334 107 209-4 336-105 62-53 95-127t34-153q-4-164-125-263-127-100-330-102l0-60q-2-57-34-104t-80-70q-33-16-72-16-47 0-94 23l0 174q41-29 77-19 33 14 33 49l0 480 170 0 0-299q58 0 111 12 80 20 125 59 59 56 59 136 0 116-96 176-88 51-209 51-127-4-211-55-45-29-69-75t-25-97q8-105 47-142l-107-115q-47 46-75 121-23 78-25 136z" horiz-adv-x="930" />

<glyph glyph-name="gallery" unicode="&#xe81f;" d="M209 481q0 130 130 130t130-130-130-130-130 130z m520-79q41 0 77-61 52-93 79-251l-729 0 17 52q17 54 55 105t85 51q53 0 126-38 25-14 56-14 38 0 86 55 58 65 92 85 27 16 56 16z m-729 261q0 43 30 73t74 31l834 0q42 0 73-31t30-73l0-625q0-44-30-74t-73-31l-834 0q-43 0-73 31t-31 74l0 625z m938-625l0 625-834 0 0-625 834 0z" horiz-adv-x="1041" />

<glyph glyph-name="android" unicode="&#xe820;" d="M275 580q9 0 15 7t7 15-7 16-15 6-15-6-6-16 6-15 15-7z m236 0q9 0 15 7t6 15-6 16-15 6-16-6-6-16 6-15 16-7z m-453-102q23 0 40-17t16-40v-240q0-24-16-41t-40-17-41 17-17 41v240q0 23 17 40t41 17z m591-11v-371q0-26-18-44t-43-18h-42v-127q0-24-16-40t-41-17-41 17-17 40v127h-77v-127q0-24-16-40t-41-17q-24 0-40 17t-17 40l-1 127h-41q-26 0-43 18t-18 44v371h512z m-129 226q59-31 95-85t36-121h-516q0 66 35 121t96 85l-39 73q-4 8 2 11 8 4 12-3l40-74q53 24 112 24t112-24l40 74q4 7 11 3 7-3 3-11z m266-272v-240q0-24-17-41t-41-17q-23 0-40 17t-17 41v240q0 24 17 40t40 17q24 0 41-17t17-40z" horiz-adv-x="785.7" />

<glyph glyph-name="apple" unicode="&#xe821;" d="M777 172q-21-70-68-139-72-110-144-110-27 0-78 18-48 18-84 18-34 0-79-19-46-19-74-19-85 0-168 145-82 146-82 281 0 127 63 208 63 81 159 81 40 0 98-17 58-17 77-17 25 0 80 19 57 19 97 19 66 0 119-36 29-20 58-56-45-37-64-66-36-52-36-115 0-69 38-125t88-70z m-209 655q0-34-17-76-16-42-52-77-30-30-60-41-20-6-58-9 2 83 44 143 41 60 139 83 1-2 2-6t1-6q0-3 0-6t1-5z" horiz-adv-x="785.7" />

<glyph glyph-name="flickr" unicode="&#xe822;" d="M696 779q67 0 114-48t47-113v-536q0-66-47-113t-114-48h-535q-67 0-114 48t-47 113v536q0 66 47 113t114 48h535z m-306-429q0 49-35 84t-84 34-83-34-35-84 35-84 83-34 84 34 35 84z m314 0q0 49-34 84t-84 34-84-34-34-84 34-84 84-34 84 34 34 84z" horiz-adv-x="857.1" />

<glyph glyph-name="paypal-1" unicode="&#xe823;" d="M621 601q0 89-133 89h-39q-18 0-33-12t-19-29l-35-154q-1-3-1-9 0-14 9-22t23-9h29q39 0 72 7t63 23 47 46 17 70z m337-85q0-148-123-239-122-89-342-89h-34q-18 0-33-12t-19-30l-40-176q-5-20-23-34t-39-15h-119q-17 0-29 12t-12 28q0 6 7 36h84q19 0 36 13t21 32l41 176q4 19 21 32t35 14h34q218 0 339 89t121 235q0 72-29 115 103-51 103-187z m-103 104q0-148-123-239-121-90-341-90h-34q-18 0-33-12t-19-30l-41-176q-4-20-22-34t-39-14h-119q-18 0-30 11t-12 28q0 5 2 11l167 726q4 21 23 35t38 14h248q38 0 70-2t67-9 63-16 54-29 44-41 27-58 10-75z" horiz-adv-x="1000" />

<glyph glyph-name="copyright" unicode="&#xe824;" d="M642 251v-61q0-28-21-50t-52-34-66-18-65-6q-115 0-192 78t-76 193q0 113 76 189t189 76q19 0 42-3t52-10 51-19 39-31 15-45v-61q0-9-8-9h-66q-9 0-9 9v39q0 24-37 38t-76 13q-79 0-128-51t-49-132q0-85 51-140t130-55q38 0 77 14t39 37v39q0 4 3 6t5 3h67q3 0 6-3t3-6z m-213 456q-73 0-139-28t-114-76-76-114-29-139 29-139 76-113 114-77 139-28 138 28 114 77 76 113 29 139-29 139-76 114-114 76-138 28z m428-357q0-117-57-215t-156-156-215-58-216 58-155 156-58 215 58 215 155 156 216 58 215-58 156-156 57-215z" horiz-adv-x="857.1" />

<glyph glyph-name="info-circled" unicode="&#xe825;" d="M454 810q190 2 326-130t140-322q2-190-131-327t-323-141q-190-2-327 131t-139 323q-4 190 130 327t324 139z m52-152q-42 0-65-24t-23-50q-2-28 15-44t49-16q38 0 61 22t23 54q0 58-60 58z m-120-594q30 0 84 26t106 78l-18 24q-48-36-72-36-14 0-4 38l42 160q26 96-22 96-30 0-89-29t-115-75l16-26q52 34 74 34 12 0 0-34l-36-152q-26-104 34-104z" horiz-adv-x="920" />

<glyph glyph-name="help-circled" unicode="&#xe826;" d="M454 810q190 2 326-130t140-322q2-190-131-327t-323-141q-190-2-327 131t-139 323q-4 190 130 327t324 139z m-2-740q30 0 49 19t19 47q2 30-17 49t-49 19l-2 0q-28 0-47-18t-21-46q0-30 19-49t47-21l2 0z m166 328q26 34 26 78 0 78-54 116-52 38-134 38-64 0-104-26-68-42-72-146l0-4 110 0 0 4q0 26 16 54 16 24 54 24 40 0 52-20 16-20 16-44 0-18-16-40-8-12-20-20l-6-4q-6-4-16-11t-20-15-21-17-17-17q-14-20-18-78l0-8 108 0 0 4q0 12 4 28 6 20 28 36l28 18q46 34 56 50z" horiz-adv-x="920" />

<glyph glyph-name="read" unicode="&#xe827;" d="M1041 767q44 0 75-31t30-73l0-625q0-43-30-73t-75-31l-937 0q-44 0-74 31t-30 73l0 625q0 42 30 73t74 31l937 0z m-937-104l0-625 417 0 0 625-417 0z m937-625l0 625-468 0 0-625 468 0z m-51 235l0-158q0-10-8-17t-18-8l-53 0q-10 0-18 8t-8 17l0 158q0 10 8 17t18 8l53 0q10 0 18-8t8-17z m-156 312l0-261q0-10-8-18t-18-8l-157 0q-10 0-18 8t-8 18l0 261q0 10 8 18t18 7l157 0q10 0 18-7t8-18z m77-131q-10 0-18 8t-8 18 8 18 18 9l53 0q10 0 18-9t8-18-8-18-18-8l-53 0z m0-104q-10 0-18 8t-8 19 8 18 18 8l53 0q10 0 18-8t8-18-8-19-18-8l-53 0z m-260-156q-10 0-18 8t-8 18 8 18 18 9l157 0q10 0 18-9t8-18-8-18-18-8l-157 0z m157-52q10 0 18-9t8-18-8-17-18-8l-157 0q-10 0-18 8t-8 17 8 18 18 9l157 0z m103 417q-10 0-18 8t-8 18 8 18 18 7l53 0q10 0 18-7t8-18-8-18-18-8l-53 0z m-442 26l0-157q0-10-8-18t-18-7l-260 0q-10 0-19 7t-8 18l0 157q0 10 8 18t19 7l260 0q10 0 18-7t8-18z m-26-338q10 0 18-9t8-18-8-18-18-8l-260 0q-10 0-19 8t-8 18 8 18 19 9l260 0z m0 103q10 0 18-8t8-18-8-18-18-8l-260 0q-10 0-19 8t-8 18 8 18 19 8l260 0z m0-208q10 0 18-9t8-18-8-17-18-8l-260 0q-10 0-19 8t-8 17 8 18 19 9l260 0z" horiz-adv-x="1146" />

<glyph glyph-name="smile" unicode="&#xe828;" d="M633 250q-21-67-77-109t-127-41-128 41-77 109q-4 14 3 27t21 18q14 4 27-2t17-22q14-44 52-72t85-28 84 28 52 72q4 15 18 22t27 2 21-18 2-27z m-276 243q0-30-21-51t-50-21-51 21-21 51 21 50 51 21 50-21 21-50z m286 0q0-30-21-51t-51-21-50 21-21 51 21 50 50 21 51-21 21-50z m143-143q0 73-29 139t-76 114-114 76-138 28-139-28-114-76-76-114-29-139 29-139 76-113 114-77 139-28 138 28 114 77 76 113 29 139z m71 0q0-117-57-215t-156-156-215-58-216 58-155 156-58 215 58 215 155 156 216 58 215-58 156-156 57-215z" horiz-adv-x="857.1" />

<glyph glyph-name="chart-bar-outline" unicode="&#xe829;" d="M678 663q65 0 110-46t46-110l0-469-834 0 0 313q0 65 46 110t110 46q59 0 104-41l0 248q0 65 46 111t110 46 111-46 46-111l0-92q45 41 105 41z m-262 104q-21 0-36-16t-15-37l0-572 104 0 0 572q0 22-16 37t-37 16z m-207-625l0 209q0 21-16 36t-37 15-37-15-15-36l0-209 105 0z m520 0l0 365q0 21-15 36t-36 15-37-15-16-36l0-365 104 0z m52-313l-728 0q-22 0-37 16t-16 37 16 36 37 15l728 0q22 0 37-15t16-36-16-37-37-16z" horiz-adv-x="834" />

<glyph glyph-name="puzzle-outline" unicode="&#xe82a;" d="M0 168q0 81 68 118-68 35-68 116l0 91q0 75 54 129t129 54l38 0q7 77 70 130t152 52 151-52 70-130l39 0q75 0 128-54t54-129l0-91q0-81-67-118 67-35 67-116l0-144q0-75-54-129t-128-53l-143 0q-81 0-117 67-35-67-118-67l-142 0q-75 0-129 53t-54 129l0 144z m781-144l0 144q0 25-18 25-13 0-30-12t-43-13q-37 0-64 34t-27 84 27 82 64 34q28 0 51-20 9-6 20-6 20 0 20 26l0 91q0 33-23 56t-55 23l-143 0q-16 0-23 9t3 31q20 24 20 51 0 38-34 64t-83 26-84-26-34-64q0-21 14-44 17-26 11-37t-25-10l-142 0q-33 0-56-23t-23-56l0-91q0-26 20-26 9 0 29 13 17 13 42 13 38 0 64-34t27-82-27-84-64-34q-27 0-51 20-10 6-20 6-20 0-20-26l0-144q0-31 23-54t56-23l142 0q19 0 24 10t-10 37q-14 20-14 44 0 38 34 64t84 26 83-26 34-64q0-27-20-51-10-22-3-31t23-9l143 0q32 0 55 23t23 54z m-677 303l0-83q6 3 20 3 32 0 55-20 7-8 16-8 15 0 28 20t12 47-12 46-28 19q-2 0-17-8-29-19-54-19-8 0-20 3z m659-81q6 0 18-3l0 83q-6-3-20-3-31 0-53 20-8 8-18 8-15 0-27-19t-12-46 12-47 27-20q4 0 19 8 29 19 54 19z m-363-299l84 0q-13 41 16 74 8 7 8 17 0 15-19 27t-46 12-47-12-18-27q0-4 7-19 25-36 15-72z" horiz-adv-x="885" />

<glyph glyph-name="flag" unicode="&#xe82b;" d="M640 693q25 25 57 11t32-47l0-418q0-21-15-36-80-80-193-80t-193 80q-47 46-110 50t-114-36l0-238q0-21-15-37t-36-15-37 15-16 37l0 678q0 21 15 36 80 80 193 80t193-80q50-50 120-50t119 50z m-312-74q-47 47-110 50t-114-36l0-119q67 33 145 20t134-67q48-49 117-56t125 28l0 122q-72-32-156-16t-141 74z m73-342q47-46 110-50t114 36l0 119q-54-25-104-25-100 0-175 72-48 49-117 56t-125-29l0-120q52 21 105 21 112 0 192-80z" horiz-adv-x="729" />

<glyph glyph-name="photo" unicode="&#xe82c;" d="M0-25l0 750q0 53 36 89t89 36l687 0q53 0 89-36t36-89l0-750q0-53-36-89t-89-36l-687 0q-53 0-89 36t-36 89z m63 0q0-25 18-44t44-19l687 0q26 0 44 19t19 44l0 750q0 25-19 44t-44 18l-687 0q-25 0-44-18t-18-44l0-750z m62 156l0 563q0 13 9 22t22 9l625 0q14 0 23-9t9-22l0-563q0-13-9-22t-23-9l-625 0q-13 0-22 9t-9 22z m31 0l483 0-88 100-18 21-252 286-125-145 0-262z m0 311l102 117q10 10 23 10t24-10l246-281 82 94q10 9 23 9t24-9l101-112 0 434-625 0 0-252z m344 96q0 39 27 66t67 27 66-27 28-66-28-67-66-27-67 27-27 67z m31 0q0-26 19-44t44-19 44 19 18 44-18 43-44 19-44-19-19-43z m41-284l108-123 101 0 0 82-125 137z" horiz-adv-x="937" />

<glyph glyph-name="view" unicode="&#xe82d;" d="M929 314q-85 132-213 197 34-58 34-125 0-104-73-177t-177-73-177 73-73 177q0 67 34 125-128-65-213-197 75-114 187-182t242-68 242 68 187 182z m-402 215q0 11-8 19t-19 7q-70 0-120-50t-50-119q0-11 8-19t19-8 19 8 8 19q0 48 34 82t82 34q11 0 19 8t8 19z m473-215q0-19-11-38-78-129-210-206t-279-77-279 77-210 206q-11 19-11 38t11 39q78 128 210 205t279 78 279-78 210-205q11-20 11-39z" horiz-adv-x="1000" />

<glyph glyph-name="cancel-outline" unicode="&#xe82e;" d="M469 819q194 0 331-137t138-332-138-331-331-138-331 138-138 331 138 332 331 137z m0-834q151 0 258 107t107 258-107 258-258 107-258-107-107-258 107-258 258-107z m36 365l139-137q12-13 5-29t-24-16q-11 0-19 7l-137 139-138-139q-7-7-18-7-17 0-24 16t5 29l139 137-139 138q-18 17 1 36t36 1l138-138 137 138q18 18 37-1t1-36z" horiz-adv-x="938" />

<glyph glyph-name="arrow-up" unicode="&#xe82f;" d="M260 673l245-245q15-15 15-37t-15-37-36-15-36 15l-120 120 0-395q0-21-16-37t-37-15-36 15-15 37l0 395-120-120q-15-15-37-15t-37 15-15 37 15 37z" horiz-adv-x="520" />

<glyph glyph-name="left-big" unicode="&#xe830;" d="M452-20q26-26 0-48-26-26-48 0l-392 394q-24 24 0 50l392 394q22 26 48 0 26-22 0-48l-358-372z" horiz-adv-x="465" />

<glyph glyph-name="correct" unicode="&#xe831;" d="M717 440q0 16-11 26l-50 50q-11 11-25 11t-26-11l-227-227-126 126q-11 11-25 11t-26-11l-50-50q-10-10-10-26 0-15 10-25l202-202q10-10 25-10 15 0 25 10l303 303q11 10 11 25z m140-90q0-117-57-215t-156-156-215-58-216 58-155 156-58 215 58 215 155 156 216 58 215-58 156-156 57-215z" horiz-adv-x="857.1" />

<glyph glyph-name="ok-squared" unicode="&#xe832;" d="M382 125l343 343q10 10 10 25t-10 25l-57 57q-11 10-25 10t-25-10l-261-261-118 118q-10 11-25 11t-25-11l-57-57q-10-10-10-25t10-25l200-200q11-10 25-10t25 10z m475 493v-536q0-66-47-113t-114-48h-535q-67 0-114 48t-47 113v536q0 66 47 113t114 48h535q67 0 114-48t47-113z" horiz-adv-x="857.1" />

<glyph glyph-name="wrong" unicode="&#xe833;" d="M641 224q0 14-10 25l-101 101 101 101q10 11 10 25 0 15-10 26l-51 50q-10 11-25 11-15 0-25-11l-101-101-101 101q-11 11-26 11-15 0-25-11l-50-50q-11-11-11-26 0-14 11-25l101-101-101-101q-11-11-11-25 0-15 11-26l50-50q10-11 25-11 15 0 26 11l101 101 101-101q10-11 25-11 15 0 25 11l51 50q10 11 10 26z m216 126q0-117-57-215t-156-156-215-58-216 58-155 156-58 215 58 215 155 156 216 58 215-58 156-156 57-215z" horiz-adv-x="857.1" />

<glyph glyph-name="code" unicode="&#xe834;" d="M344 69l-28-28q-5-5-12-5t-13 5l-260 260q-6 6-6 13t6 13l260 260q5 6 13 6t12-6l28-28q6-5 6-13t-6-12l-219-220 219-219q6-6 6-13t-6-13z m330 596l-208-721q-2-7-9-11t-13-1l-34 9q-8 3-11 9t-2 14l208 720q3 8 9 11t13 2l35-10q7-2 11-9t1-13z m367-364l-260-260q-6-5-13-5t-13 5l-28 28q-5 6-5 13t5 13l219 219-219 220q-5 5-5 12t5 13l28 28q6 6 13 6t13-6l260-260q5-5 5-13t-5-13z" horiz-adv-x="1071.4" />

<glyph glyph-name="plus-squared" unicode="&#xe835;" d="M714 314v72q0 14-10 25t-25 10h-179v179q0 15-11 25t-25 11h-71q-15 0-25-11t-11-25v-179h-178q-15 0-26-10t-10-25v-72q0-14 10-25t26-10h178v-179q0-14 11-25t25-11h71q15 0 25 11t11 25v179h179q14 0 25 10t10 25z m143 304v-536q0-66-47-113t-114-48h-535q-67 0-114 48t-47 113v536q0 66 47 113t114 48h535q67 0 114-48t47-113z" horiz-adv-x="857.1" />

<glyph glyph-name="user" unicode="&#xe836;" d="M4-105q-14 43 25 70 119 78 291 116-84 105-119 255-10 55-11 122t23 149 66 138q84 105 223 105t222-105q43-57 67-138t22-149-11-122q-35-150-119-255 172-38 291-116 39-27 26-71t-61-44l-875 0q-21 0-38 13t-22 32z m60 17l875 0q-109 73-267 108l-79 16q-45-30-91-30t-92 30l-78-16q-160-35-268-108z m193 602q-13-103 16-208t96-186l10-14q56-65 123-65t123 65l9 14q67 82 96 186t16 208q-14 113-76 193t-168 80-168-80-77-193z" horiz-adv-x="1003" />

<glyph glyph-name="point" unicode="&#xe837;" d="M0 53l0 594q0 98 131 150t307 53 306-53 131-150l0-594q0-98-131-150t-306-53-307 53-131 150z m63 0q0-59 109-100t266-41 265 41 109 100l0 117q-46-48-150-75t-224-26-225 26-150 75l0-117z m0 188q0-59 109-100t266-41 265 41 109 100l0 117q-46-49-150-75t-224-27-225 27-150 75l0-117z m0 187q0-58 109-99t266-41 265 41 109 99l0 108q-58-45-160-69t-214-23-215 23-160 69l0-108z m0 219q0-59 109-100t266-41 265 41 109 100-109 99-265 41-266-41-109-99z m625-609q0 13 8 22t23 9 22-9 9-22-9-23-22-9-23 9-8 23z m0 187q0 14 8 22t23 9 22-9 9-22-9-22-22-9-23 9-8 22z m0 188q0 13 8 22t23 9 22-9 9-22-9-23-22-9-23 9-8 23z" horiz-adv-x="875" />

<glyph glyph-name="mail" unicode="&#xe838;" d="M0 163l0 406q0 51 36 88t89 37l750 0q53 0 89-37t36-88l0-406q0-53-36-89t-89-36l-750 0q-53 0-89 36t-36 89z m63 0q0-26 18-44t44-19l750 0q25 0 44 19t18 44l-244 183-136-101q-26-20-57-20t-57 20l-136 101z m0 39l218 164-218 164 0-328z m0 367l244-184 27-19 129-98q16-12 37-12t37 12l400 301q0 25-18 44t-44 18l-750 0q-25 0-44-18t-18-44z m656-203l218-164 0 328z" horiz-adv-x="1000" />

<glyph glyph-name="videocam" unicode="&#xe839;" d="M0 100l0 500q0 39 27 66t67 28l594 0q39 0 66-28t27-66l0-39 84 84q20 17 45 17l27 0q26 0 44-18t19-44l0-500q0-27-19-45t-44-17l-27 0q-25 0-45 17l-84 84 0-39q0-39-27-66t-66-28l-594 0q-39 0-67 28t-27 66z m63 0q0-14 8-22t23-9l594 0q13 0 22 9t9 22l0 500q0 14-9 22t-22 9l-594 0q-14 0-23-9t-8-22l0-500z m687 156l31-31 125-125 31 0 0 500-31 0-156-156 0-188z" horiz-adv-x="1000" />

<glyph glyph-name="camera" unicode="&#xe83a;" d="M0 6l0 469q0 35 23 61t55 31l135 23 43 108q12 27 35 43t53 15l312 0q30 0 53-15t35-43l43-108 135-23q33-6 56-31t22-61l0-469q0-39-27-66t-67-28l-812 0q-39 0-67 28t-27 66z m63 0q0-13 8-22t23-9l812 0q14 0 23 9t8 22l0 469q0 27-25 31l-170 28-56 140q-8 20-30 20l-312 0q-22 0-30-20l-56-140-170-28q-25-4-25-31l0-469z m187 282q0 103 73 176t177 74 177-74 73-176-73-177-177-73-177 73-73 177z m63-15q5-77 65-128t137-45 128 65 45 137-66 128-137 45-128-65-44-137z m62 15q0 50 36 87t89 38q16 0 16-16t-16-16q-39 0-66-27t-28-66q0-16-15-16t-16 16z" horiz-adv-x="1000" />

<glyph glyph-name="doc" unicode="&#xe83b;" d="M0-25l0 625q0 39 27 66t67 28l31 0 0 62q0 39 27 67t67 27l687 0q39 0 67-27t27-67l0-781q0-53-36-89t-89-36l-750 0q-53 0-89 36t-36 89z m63 0q0-25 18-44t44-19l750 0q25 0 44 19t18 44l0 781q0 14-8 23t-23 8l-687 0q-14 0-23-8t-8-23l0-750q0-13-9-22t-23-9-22 9-9 22l0 625-31 0q-14 0-23-9t-8-22l0-625z m187 16q0 15 16 15l250 0q15 0 15-15t-15-16l-250 0q-16 0-16 16z m0 93q0 16 16 16l250 0q15 0 15-16t-15-15l-250 0q-16 0-16 15z m0 94q0 16 16 16l250 0q15 0 15-16 0-6-5-11t-10-4l-250 0q-16 0-16 15z m0 94q0 16 16 16l593 0q16 0 16-16t-16-16l-593 0q-16 0-16 16z m0 94q0 15 16 15l593 0q16 0 16-15t-16-16l-593 0q-16 0-16 16z m0 109l0 219q0 13 9 22t22 9l219 0q14 0 22-9t9-22l0-219q0-14-9-22t-22-9l-219 0q-13 0-22 9t-9 22z m63 31l156 0 0 156-156 0 0-156z m281-515q0 15 15 15l250 0q16 0 16-15t-16-16l-250 0q-15 0-15 16z m0 93q0 16 15 16l250 0q16 0 16-16t-16-15l-250 0q-15 0-15 15z m0 94q0 16 15 16l250 0q16 0 16-16 0-6-5-11t-11-4l-250 0q-15 0-15 15z m0 281q0 16 15 16l250 0q16 0 16-16t-16-15l-250 0q-15 0-15 15z m0 94q0 16 15 16l250 0q16 0 16-16t-16-15l-250 0q-15 0-15 15z m0 94q0 15 15 15l250 0q16 0 16-15t-16-16l-250 0q-15 0-15 16z" horiz-adv-x="1000" />

<glyph glyph-name="trash" unicode="&#xe83c;" d="M0 569l0 68q2 37 29 63t65 25l94 0 0 31q0 39 27 67t66 27l313 0q39 0 66-27t28-67l0-31 93 0q37 0 65-25t29-63l0-68q0-26-19-44t-44-19l0-531q0-53-36-89t-88-36l-500 0q-53 0-89 36t-36 89l0 531q-26 0-44 19t-19 44z m63 0l749 0 0 62q0 14-8 23t-23 8l-687 0q-14 0-23-8t-8-23l0-62z m62-594q0-25 19-44t44-19l500 0q25 0 43 19t19 44l0 531-625 0 0-531z m63 31l0 407q0 13 8 22t23 9l62 0q14 0 23-9t9-22l0-407q0-13-9-22t-23-9l-62 0q-14 0-23 9t-8 22z m31 0l62 0 0 407-62 0 0-407z m31 719l375 0 0 31q0 14-9 23t-22 8l-313 0q-13 0-22-8t-9-23l0-31z m125-719l0 407q0 13 9 22t22 9l63 0q13 0 22-9t9-22l0-407q0-13-9-22t-22-9l-63 0q-13 0-22 9t-9 22z m31 0l63 0 0 407-63 0 0-407z m157 0l0 407q0 13 8 22t23 9l62 0q14 0 23-9t9-22l0-407q0-13-9-22t-23-9l-62 0q-14 0-23 9t-8 22z m31 0l62 0 0 407-62 0 0-407z" horiz-adv-x="875" />

<glyph glyph-name="location" unicode="&#xe83d;" d="M0 475q0 156 109 266t266 109 266-109 109-266q0-78-28-160t-85-166-101-141-110-133q-20-25-49-25l-4 0q-29 0-49 25-66 77-110 133t-101 141-85 166-28 160z m63 0q0-72 28-150t85-161 95-128 100-120l2 0q2-2 2-4l4 4q62 73 100 120t94 128 86 161 29 150q0 129-92 221t-221 91-221-91-91-221z m125 8q0 78 54 133t133 54 133-54 55-133-55-133-133-55-133 55-54 133z m31 0q0-65 46-111t110-45 110 45 46 111-46 110-110 46-110-46-46-110z" horiz-adv-x="750" />

<glyph glyph-name="tag" unicode="&#xe83e;" d="M0 100l0 500q0 51 36 88t89 37l594 0q68 0 105-59l156-250q43-66 0-132l-156-250q-37-59-105-59l-594 0q-53 0-89 36t-36 89z m63 0q0-25 18-44t44-18l594 0q35 0 52 29l157 250q21 33 0 66l-157 250q-17 29-52 29l-594 0q-25 0-44-18t-18-44l0-500z m562 250q0 39 27 66t67 28 66-28 27-66-27-66-66-28-67 28-27 66z m31 0q0-25 19-44t44-18 44 18 18 44-18 44-44 19-44-19-19-44z" horiz-adv-x="1002" />

<glyph glyph-name="thumbs-up" unicode="&#xe83f;" d="M0-56l0 500q0 39 27 66t67 28l94 0q32 0 60-24 12 6 33 16 123 64 125 226 0 39 28 67t66 27q57 0 105-64t49-147q0-66-8-103 237-6 266-14 43-12 66-43t22-63l0-23q-2-39-27-68 17-34 11-75-7-54-41-86 16-37 0-83-17-59-52-83 7-27 0-54-6-18-14-34-33-60-111-60l-172 0q-92 0-186 21-92 22-127 30l-2 0q0 2-3 2l-4 0 0 2q-28-55-84-55l-94 0q-39 0-67 27t-27 67z m63 0q0-14 8-23t23-9l94 0q13 0 22 9t9 23l0 500q0 13-9 22t-22 9l-94 0q-14 0-23-9t-8-22l0-500z m31 47q0 19 13 33t34 14 33-14 14-33-14-34-33-13-34 13-13 34z m31 0q0-16 16-16t15 16-15 15-16-15z m125 3q0-23 27-27 22-6 145-35 88-20 172-20l172 0q41 0 56 28 6 15 8 23 6 12-2 28t-29 15l-49 0q-16 0-16 16t16 16l51 0q31 0 49 10t22 20 11 30q21 65-39 65l-63 0q-15 0-15 15t15 16l74 0q57 0 69 66 2 22-9 40t-42 19l-61 0q-15 0-15 15t15 16l63 0q61 0 62 45l0 21q0 38-37 47-45 12-337 12 19 59 24 84t5 80q0 57-32 103t-60 45q-31 0-31-31-2-92-46-173t-142-122q-2 0-4-1l-2-1q-25-7-25-33l0-432z" horiz-adv-x="1000" />

<glyph glyph-name="eye" unicode="&#xe840;" d="M0 341l0 18q0 1 2 3l0 4q70 130 206 213t290 83 291-83 205-215l1-1 1-1 0-4q2-6 2-8t-2-8l0-4-1-1-1-1q-68-132-205-215t-291-83-290 83-206 215l0 2q-2 2-2 3z m66 9q65-113 183-182t250-68 250 68 183 182q-65 113-183 182t-250 68-250-68-183-182z m213 0q0 90 65 154t154 65 154-65 65-154-65-154-154-65-154 65-65 154z m32 0q0-78 54-133t133-54 133 54 55 133-55 133-133 55-133-55-54-133z m62 0q0 53 37 89t88 36q16 0 16-16t-16-15q-37 0-65-28t-29-66q0-16-15-16t-16 16z" horiz-adv-x="998" />

<glyph glyph-name="t-shirt" unicode="&#xe841;" d="M4 580q-14 41 20 69l156 125q17 13 39 13l562 0q22 0 39-13l157-125q33-28 19-69l-62-187q-10-29-39-39-10-4-20-4-18 0-31 8l0-383q0-25-19-44t-44-19l-562 0q-26 0-44 19t-19 44l0 383q-13-8-31-8-10 0-19 4-30 10-39 39z m59 20l62-187 94 62 0-500 562 0 0 500 94-62 63 187-157 125-131 0q-13-41-54-67t-96-27-96 27-54 67l-131 0z m320 125q14-27 45-45t72-18 72 18 45 45l-234 0z" horiz-adv-x="1000" />

<glyph glyph-name="wallet" unicode="&#xe842;" d="M0 22l0 625q0 70 51 121t121 51l640 0q40 0 67-28t27-66l0-281q94-71 94-188t-94-187l0-47q0-70-51-121t-121-51l-562 0q-70 0-121 51t-51 121z m63 0q0-45 32-77t77-33l562 0q45 0 78 33t32 77l0 47-281 0q-65 0-111 46t-46 110 46 110 111 46l281 0 0 63q0 13-9 22t-23 9l-640 0q-63 0-109 39l0-492z m0 625q0-45 31-76l0 123q0 13 9 22t22 9l656 0q14 0 23-9t9-22l0-156q15 0 31-6l0 193q0 14-9 22t-23 9l-640 0q-45 0-77-32t-32-77z m62-98q23-11 47-11l609 0 0 31-656 0 0-20z m0 51l656 0 0 31-656 0 0-31z m0 62l656 0 0 32-656 0 0-32z m344-437q0-39 27-66t67-28l320 0q54 51 54 125 0 59-35 104l0-2q-4-8-7-14-20-25-51-25l-281 0q-40 0-67-28t-27-66z m31 0q0 25 19 44t44 19 43-19 19-44-19-44-43-18-44 18-19 44z" horiz-adv-x="1000" />

<glyph glyph-name="megaphone" unicode="&#xe843;" d="M0 413q0 66 36 111t89 45l289 0q63 0 119 45t96 125l2 0q58 111 150 111 102 0 160-131t59-306-59-307-160-131q-92 0-150 111l-2 0q-78 155-199 168-6-2-8-2l0-2q-6-2-10-7-2-2-2-4-4-6-4-12l0-221q0-8 16-26t16-36l0-32q0-25-19-43t-44-19l-125 0q-25 0-44 19t-18 43l0 282q0 25-19 44t-44 18q-53 0-89 45t-36 112z m63 0q0-40 18-67t44-27l219 0q-31 37-31 94t31 93l-219 0q-25 0-44-27t-18-66z m169-157q18-29 18-62l0-282 125 0 0 28-2 2-2 2q-27 33-27 62l0 219q0 16 6 31l-118 0z m112 157q0-40 18-67t44-27l8 0q86 0 162-63-13 74-13 157 0 80 13 156-76-63-162-63l-8 0q-25 0-44-27t-18-66z m281 0q0-47 6-94l88 0q25 0 44 27t18 67-18 66-44 27l-88 0q-6-47-6-93z m14-157q19-97 57-158t85-60q65 0 111 109t45 266-45 265-111 109q-47 0-85-60t-57-158l80 0q52 0 89-45t36-111-36-112-89-45l-80 0z" horiz-adv-x="1000" />

<glyph glyph-name="globe" unicode="&#xe844;" d="M0 366q0 201 142 342t342 142 343-142 142-342-142-343-343-142-342 142-142 343z m63-16q7-166 125-283 52 37 109 60-43 106-47 223l-187 0z m0 31l187 0q4 104 37 196-62 25-117 68-102-113-107-264z m128 287q51-39 108-62 43 101 117 176-131-22-225-114z m20-623q88-76 205-95-64 64-105 148-53-19-100-53z m70 305q4-111 45-213 69 22 143 26l0 187-188 0z m0 31l188 0 0 157q-78 3-153 29-31-88-35-186z m47 215q69-23 141-27l0 218-2 0q-90-76-139-191z m12-486q49-100 127-166l2 0 0 187q-69-4-129-21z m160-166l2 0q78 66 127 166-61 17-129 21l0-187z m0 219q74-4 143-26 41 102 45 213l-188 0 0-187z m0 218l188 0q-4 98-36 186-74-26-152-29l0-157z m0 188q72 4 141 27-49 115-139 191l-2 0 0-218z m53-619q117 19 205 95-47 34-100 53-41-84-105-148z m0 832q74-75 117-176 57 23 107 62-93 92-224 114z m119-655q57-23 109-60 117 117 125 283l-187 0q-4-117-47-223z m10 450q33-92 37-196l187 0q-6 151-107 264-55-43-117-68z" horiz-adv-x="969" />

<glyph glyph-name="down" unicode="&#xe845;" d="M564 422l-234-224q-18-18-40-18t-40 18l-234 224q-16 16-16 41t16 41q38 38 78 0l196-188 196 188q40 38 78 0 16-16 16-41t-16-41z" horiz-adv-x="580" />

<glyph glyph-name="up" unicode="&#xe846;" d="M564 280q16-16 16-41t-16-41q-38-38-78 0l-196 188-196-188q-40-38-78 0-16 16-16 41t16 41l234 224q16 16 40 16t40-16z" horiz-adv-x="580" />

<glyph glyph-name="left" unicode="&#xe847;" d="M242 626q14 16 39 16t41-16q38-36 0-80l-186-196 186-194q38-44 0-80-16-16-40-16t-40 16l-226 236q-16 16-16 38 0 24 16 40 206 214 226 236z" horiz-adv-x="341" />

<glyph glyph-name="right" unicode="&#xe848;" d="M98 626l226-236q16-16 16-40 0-22-16-38l-226-236q-16-16-40-16t-40 16q-36 36 0 80l186 194-186 196q-36 44 0 80 16 16 41 16t39-16z" horiz-adv-x="340" />

<glyph glyph-name="plus" unicode="&#xe849;" d="M786 439v-107q0-22-16-38t-38-15h-232v-233q0-22-16-37t-38-16h-107q-22 0-38 16t-15 37v233h-232q-23 0-38 15t-16 38v107q0 23 16 38t38 16h232v232q0 22 15 38t38 16h107q23 0 38-16t16-38v-232h232q22 0 38-16t16-38z" horiz-adv-x="785.7" />

<glyph glyph-name="reply" unicode="&#xe84a;" d="M900 10q-86 152-208 197t-330 45l0-218-362 334 362 322 0-192q90 0 168-27t131-70 96-95 69-104 44-95 24-69z" horiz-adv-x="900" />

<glyph glyph-name="check" unicode="&#xe84b;" d="M932 534q0-22-15-38l-404-404-76-76q-16-15-38-15t-38 15l-76 76-202 202q-15 16-15 38t15 38l76 76q16 16 38 16t38-16l164-165 366 367q16 16 38 16t38-16l76-76q15-16 15-38z" horiz-adv-x="1000" />

<glyph glyph-name="underline" unicode="&#xe84c;" d="M27 726q-21 1-25 2l-2 49q7 0 22 0 34 0 63-2 74-4 92-4 48 0 94 2 65 2 82 3 31 0 48 1l-1-8 1-36v-5q-33-5-69-5-33 0-44-14-7-7-7-73 0-8 0-18t0-15l1-127 8-157q3-69 28-112 20-33 54-52 49-26 98-26 58 0 107 16 31 10 55 28 27 20 37 36 20 31 29 63 12 41 12 128 0 44-2 72t-6 68-8 89l-2 33q-3 37-13 49-19 20-43 19l-56-1-8 2 1 48h47l114-6q43-2 110 6l10-2q3-21 3-28 0-4-2-17-25-7-47-8-41-6-44-9-8-8-8-23 0-4 0-15t1-17q5-11 13-221 3-109-9-170-8-42-23-68-21-36-62-69-42-31-102-49-61-19-142-19-93 0-159 26-66 26-99 68-34 42-47 109-9 45-9 132v186q0 105-9 119-14 20-82 22z m830-787v36q0 8-5 13t-13 5h-821q-8 0-13-5t-5-13v-36q0-8 5-13t13-5h821q8 0 13 5t5 13z" horiz-adv-x="857.1" />

<glyph glyph-name="strike" unicode="&#xe84d;" d="M982 350q8 0 13-5t5-13v-36q0-7-5-12t-13-5h-964q-8 0-13 5t-5 12v36q0 8 5 13t13 5h964z m-712 36q-16 19-29 44-27 54-27 105 0 101 75 173 74 71 219 71 28 0 94-11 36-7 98-27 6-21 12-66 8-68 8-102 0-10-3-25l-7-2-46 4-8 1q-28 83-58 114-49 51-117 51-64 0-102-33-37-32-37-81 0-41 37-78t156-72q38-12 96-37 33-16 53-29h-414z m282-143h230q4-22 4-51 0-62-23-119-13-30-40-58-20-19-61-45-44-27-85-37-45-12-113-12-64 0-109 13l-78 23q-32 8-40 15-5 5-5 12v8q0 60-1 87 0 17 0 38l1 20v25l57 1q8-19 17-40t12-31 7-15q20-32 45-52 24-20 59-32 33-12 73-12 36 0 78 15 43 14 68 48 26 34 26 72 0 47-45 87-19 16-77 40z" horiz-adv-x="1000" />

<glyph glyph-name="list-numbered" unicode="&#xe84e;" d="M213-54q0-45-31-70t-75-26q-60 0-96 37l31 49q28-25 60-25 16 0 28 8t12 24q0 35-59 31l-14 31q4 6 18 24t24 31 20 21v1q-9 0-27-1t-27 0v-30h-59v85h186v-49l-53-65q28-6 45-27t17-49z m1 350v-89h-202q-4 20-4 30 0 29 14 52t31 38 37 27 31 24 14 25q0 14-9 22t-22 7q-25 0-45-32l-47 33q13 28 40 44t59 16q40 0 68-23t28-63q0-28-19-51t-42-36-42-28-20-30h71v34h59z m786-178v-107q0-8-5-13t-13-5h-678q-8 0-13 5t-5 13v107q0 8 5 13t13 5h678q7 0 13-6t5-12z m-786 502v-56h-187v56h60q0 22 0 68t1 67v7h-1q-5-10-28-30l-40 42 76 71h59v-225h60z m786-216v-108q0-7-5-12t-13-5h-678q-8 0-13 5t-5 12v108q0 7 5 12t13 5h678q7 0 13-5t5-12z m0 285v-107q0-7-5-12t-13-6h-678q-8 0-13 6t-5 12v107q0 8 5 13t13 5h678q7 0 13-5t5-13z" horiz-adv-x="1000" />

<glyph glyph-name="list-bullet" unicode="&#xe84f;" d="M214 64q0-44-31-76t-76-31-76 31-31 76 31 76 76 31 76-31 31-76z m0 286q0-45-31-76t-76-31-76 31-31 76 31 76 76 31 76-31 31-76z m786-232v-107q0-7-5-13t-13-5h-678q-8 0-13 5t-5 13v107q0 7 5 12t13 6h678q7 0 13-6t5-12z m-786 518q0-45-31-76t-76-31-76 31-31 76 31 76 76 31 76-31 31-76z m786-232v-108q0-7-5-12t-13-5h-678q-8 0-13 5t-5 12v108q0 7 5 12t13 5h678q7 0 13-5t5-12z m0 285v-107q0-7-5-12t-13-6h-678q-8 0-13 6t-5 12v107q0 8 5 13t13 5h678q7 0 13-5t5-13z" horiz-adv-x="1000" />

<glyph glyph-name="superscript" unicode="&#xe850;" d="M501 86v-93h-139l-89 141-13 23q-4 5-6 12h-2l-5-12q-5-11-14-25l-86-139h-144v93h71l110 162-103 152h-76v94h154l77-127q1-2 13-24 4-5 6-11h2q1 5 6 11l14 24 78 127h143v-94h-69l-103-149 114-165h61z m355 379v-115h-287l-1 15q-3 16-3 26 0 35 15 65t36 48 47 37 47 30 36 30 15 36q0 21-17 35t-39 13q-29 0-54-21-8-7-20-22l-59 52q15 20 35 37 46 36 105 36 61 0 99-33t38-89q0-31-13-57t-35-43-45-33-46-28-37-29-17-35h130v45h70z" horiz-adv-x="857.1" />

<glyph glyph-name="subscript" unicode="&#xe851;" d="M501 86v-93h-139l-89 141-13 23q-4 5-6 12h-2l-5-12q-5-11-14-25l-86-139h-144v93h71l110 162-103 152h-76v94h154l77-127q1-2 13-24 4-5 6-11h2q1 5 6 11l14 24 78 127h143v-94h-69l-103-149 114-165h61z m356-121v-115h-287l-2 15q-2 25-2 26 0 35 15 65t36 48 47 37 47 30 36 30 15 36q0 21-17 35t-39 13q-29 0-54-21-8-6-20-22l-59 52q15 20 35 37 45 36 105 36 62 0 99-33t38-89q0-37-19-66t-47-48-55-35-49-35-23-41h130v45h70z" horiz-adv-x="857.1" />

<glyph glyph-name="table" unicode="&#xe852;" d="M286 82v107q0 8-5 13t-13 5h-179q-7 0-13-5t-5-13v-107q0-8 5-13t13-5h179q8 0 13 5t5 13z m0 214v108q0 7-5 12t-13 5h-179q-7 0-13-5t-5-12v-108q0-7 5-12t13-5h179q8 0 13 5t5 12z m285-214v107q0 8-5 13t-12 5h-179q-8 0-13-5t-5-13v-107q0-8 5-13t13-5h179q7 0 12 5t5 13z m-285 429v107q0 8-5 13t-13 5h-179q-7 0-13-5t-5-13v-107q0-8 5-13t13-5h179q8 0 13 5t5 13z m285-215v108q0 7-5 12t-12 5h-179q-8 0-13-5t-5-12v-108q0-7 5-12t13-5h179q7 0 12 5t5 12z m286-214v107q0 8-5 13t-13 5h-178q-8 0-13-5t-5-13v-107q0-8 5-13t13-5h178q8 0 13 5t5 13z m-286 429v107q0 8-5 13t-12 5h-179q-8 0-13-5t-5-13v-107q0-8 5-13t13-5h179q7 0 12 5t5 13z m286-215v108q0 7-5 12t-13 5h-178q-8 0-13-5t-5-12v-108q0-7 5-12t13-5h178q8 0 13 5t5 12z m0 215v107q0 8-5 13t-13 5h-178q-8 0-13-5t-5-13v-107q0-8 5-13t13-5h178q8 0 13 5t5 13z m72 178v-607q0-37-27-63t-63-26h-750q-36 0-63 26t-26 63v607q0 37 26 63t63 27h750q37 0 63-27t27-63z" horiz-adv-x="928.6" />

<glyph glyph-name="paragraph" unicode="&#xe853;" d="M713 745v-41q0-16-10-34t-24-18q-28 0-30-1-15-3-18-17-2-6-2-36v-643q0-14-10-24t-24-10h-60q-14 0-24 10t-10 24v680h-80v-680q0-14-9-24t-25-10h-60q-14 0-24 10t-10 24v277q-82 7-137 33-70 33-107 100-36 65-36 145 0 92 50 159 49 66 116 89 62 21 233 21h267q14 0 24-10t10-24z" horiz-adv-x="714.3" />

<glyph glyph-name="text-height" unicode="&#xe854;" d="M973 64q19 0 24-10t-6-25l-71-90q-11-15-27-15t-27 15l-71 90q-11 15-6 25t23 10h45v572h-45q-18 0-23 10t6 25l71 90q11 15 27 15t27-15l71-90q11-15 6-25t-24-10h-44v-572h44z m-928 714l30-15q7-3 118-3 25 0 74 1t73 1q21 0 60 0t60 0h164q3 0 12 0t11 0 9 1 10 5 8 10l24 1q2 0 7-1t8 0q1-62 1-187 0-45-2-61-22-8-38-10-14 24-31 71-1 5-6 27t-8 41-4 20q-3 4-7 7t-8 3-8 1-10 1-9-1q-9 0-37 1t-42 0-35-1-40-4q-5-45-4-75 0-53 1-217t1-254q0-9-1-40t0-51 7-38q22-12 69-24t67-21q2-22 2-28 0-8-1-16l-19-1q-43-1-122 5t-115 5q-28 0-85-5t-84-5q-2 29-2 29v5q9 15 34 24t55 17 44 15q10 23 10 213 0 57-1 170t-2 169v65q0 1 0 9t1 14-1 14-2 13-3 8q-6 7-90 7-18 0-52-7t-44-15q-11-7-19-40t-18-62-24-30q-23 15-31 25v213z" horiz-adv-x="1000" />

<glyph glyph-name="text-width" unicode="&#xe855;" d="M45 778l30-15q7-3 118-3 25 0 74 1t73 1q39 0 138 1t170 0 138-2q18-1 31 17l23 1q3 0 8-1t8 0q1-62 1-187 0-45-3-61-21-8-38-10-14 24-30 71-1 5-6 27t-8 41-4 20q-6 7-15 10-3 1-37 1-17 0-52 1t-57 1-53-2-53-4q-5-45-5-75l1-85v29q0-31 0-86t1-101 0-85q0-9-1-40t0-51 7-38q22-12 69-24t67-21q3-22 3-28 0-8-2-16l-19-1q-42-1-121 5t-116 5q-28 0-84-5t-85-5q-2 29-2 29v5q10 15 35 24t55 17 43 15q4 9 7 41t3 81 1 87-1 85 0 50q0 4-1 12t-2 12q0 4 1 25t0 41 0 42-1 38-4 18q-6 7-90 7-23 0-91-8t-77-14q-11-6-19-39t-18-63-24-30q-23 15-31 25v213z m686-715q7 0 23-11t33-23 33-28 20-17q14-11 14-27t-14-27q-2-2-20-17t-33-27-33-23-23-11q-7 0-11 5t-6 16-1 19 0 18 1 11h-571q0-1 1-11t1-18-2-19-5-16-12-5q-7 0-23 11t-32 23-34 27-20 17q-14 11-14 27t14 27q3 2 20 17t34 28 32 23 23 11q7 0 12-6t5-16 2-19-1-18-1-11h571q0 1-1 11t0 18 1 19 6 16 11 6z" horiz-adv-x="857.1" />

<glyph glyph-name="align-left" unicode="&#xe856;" d="M1000 100v-71q0-15-11-25t-25-11h-928q-15 0-25 11t-11 25v71q0 15 11 25t25 11h928q15 0 25-11t11-25z m-214 214v-71q0-15-11-25t-25-11h-714q-15 0-25 11t-11 25v71q0 15 11 25t25 11h714q15 0 25-11t11-25z m143 215v-72q0-14-11-25t-25-11h-857q-15 0-25 11t-11 25v72q0 14 11 25t25 10h857q14 0 25-10t11-25z m-215 214v-72q0-14-10-25t-25-10h-643q-15 0-25 10t-11 25v72q0 14 11 25t25 11h643q14 0 25-11t10-25z" horiz-adv-x="1000" />

<glyph glyph-name="align-center" unicode="&#xe857;" d="M1000 100v-71q0-15-11-25t-25-11h-928q-15 0-25 11t-11 25v71q0 15 11 25t25 11h928q15 0 25-11t11-25z m-214 214v-71q0-15-11-25t-25-11h-500q-14 0-25 11t-11 25v71q0 15 11 25t25 11h500q15 0 25-11t11-25z m143 215v-72q0-14-11-25t-25-11h-786q-14 0-25 11t-11 25v72q0 14 11 25t25 10h786q14 0 25-10t11-25z m-215 214v-72q0-14-10-25t-25-10h-358q-14 0-25 10t-10 25v72q0 14 10 25t25 11h358q14 0 25-11t10-25z" horiz-adv-x="1000" />

<glyph glyph-name="align-right" unicode="&#xe858;" d="M1000 100v-71q0-15-11-25t-25-11h-928q-15 0-25 11t-11 25v71q0 15 11 25t25 11h928q15 0 25-11t11-25z m0 214v-71q0-15-11-25t-25-11h-714q-14 0-25 11t-11 25v71q0 15 11 25t25 11h714q15 0 25-11t11-25z m0 215v-72q0-14-11-25t-25-11h-857q-14 0-25 11t-11 25v72q0 14 11 25t25 10h857q15 0 25-10t11-25z m0 214v-72q0-14-11-25t-25-10h-643q-14 0-25 10t-10 25v72q0 14 10 25t25 11h643q15 0 25-11t11-25z" horiz-adv-x="1000" />

<glyph glyph-name="align-justify" unicode="&#xe859;" d="M1000 100v-71q0-15-11-25t-25-11h-928q-15 0-25 11t-11 25v71q0 15 11 25t25 11h928q15 0 25-11t11-25z m0 214v-71q0-15-11-25t-25-11h-928q-15 0-25 11t-11 25v71q0 15 11 25t25 11h928q15 0 25-11t11-25z m0 215v-72q0-14-11-25t-25-11h-928q-15 0-25 11t-11 25v72q0 14 11 25t25 10h928q15 0 25-10t11-25z m0 214v-72q0-14-11-25t-25-10h-928q-15 0-25 10t-11 25v72q0 14 11 25t25 11h928q15 0 25-11t11-25z" horiz-adv-x="1000" />

<glyph glyph-name="list" unicode="&#xe85a;" d="M143 118v-107q0-7-5-13t-13-5h-107q-7 0-13 5t-5 13v107q0 7 5 12t13 6h107q7 0 13-6t5-12z m0 214v-107q0-7-5-13t-13-5h-107q-7 0-13 5t-5 13v107q0 7 5 13t13 5h107q7 0 13-5t5-13z m0 214v-107q0-7-5-12t-13-6h-107q-7 0-13 6t-5 12v107q0 8 5 13t13 5h107q7 0 13-5t5-13z m857-428v-107q0-7-5-13t-13-5h-750q-7 0-12 5t-6 13v107q0 7 6 12t12 6h750q7 0 13-6t5-12z m-857 643v-107q0-8-5-13t-13-5h-107q-7 0-13 5t-5 13v107q0 7 5 12t13 6h107q7 0 13-6t5-12z m857-429v-107q0-7-5-13t-13-5h-750q-7 0-12 5t-6 13v107q0 7 6 13t12 5h750q7 0 13-5t5-13z m0 214v-107q0-7-5-12t-13-6h-750q-7 0-12 6t-6 12v107q0 8 6 13t12 5h750q7 0 13-5t5-13z m0 215v-107q0-8-5-13t-13-5h-750q-7 0-12 5t-6 13v107q0 7 6 12t12 6h750q7 0 13-6t5-12z" horiz-adv-x="1000" />

<glyph glyph-name="indent-left" unicode="&#xe85b;" d="M214 546v-321q0-7-5-13t-13-5q-7 0-12 5l-161 161q-5 5-5 13t5 13l161 160q5 5 12 5 8 0 13-5t5-13z m786-428v-107q0-7-5-13t-13-5h-964q-7 0-13 5t-5 13v107q0 7 5 12t13 6h964q7 0 13-6t5-12z m0 214v-107q0-7-5-13t-13-5h-607q-7 0-13 5t-5 13v107q0 7 5 13t13 5h607q7 0 13-5t5-13z m0 214v-107q0-7-5-12t-13-6h-607q-7 0-13 6t-5 12v107q0 8 5 13t13 5h607q7 0 13-5t5-13z m0 215v-107q0-8-5-13t-13-5h-964q-7 0-13 5t-5 13v107q0 7 5 12t13 6h964q7 0 13-6t5-12z" horiz-adv-x="1000" />

<glyph glyph-name="indent-right" unicode="&#xe85c;" d="M196 386q0-8-5-13l-160-161q-5-5-13-5-7 0-13 5t-5 13v321q0 8 5 13t13 5q8 0 13-5l160-160q5-5 5-13z m804-268v-107q0-7-5-13t-13-5h-964q-7 0-13 5t-5 13v107q0 7 5 12t13 6h964q7 0 13-6t5-12z m0 214v-107q0-7-5-13t-13-5h-607q-7 0-13 5t-5 13v107q0 7 5 13t13 5h607q7 0 13-5t5-13z m0 214v-107q0-7-5-12t-13-6h-607q-7 0-13 6t-5 12v107q0 8 5 13t13 5h607q7 0 13-5t5-13z m0 215v-107q0-8-5-13t-13-5h-964q-7 0-13 5t-5 13v107q0 7 5 12t13 6h964q7 0 13-6t5-12z" horiz-adv-x="1000" />

<glyph glyph-name="bold" unicode="&#xe85d;" d="M310 1q41-18 78-18 210 0 210 187 0 64-23 101-15 24-35 41t-37 26-45 14-47 6-53 1q-40 0-56-6 0-29 0-88t-1-89q0-4 0-37t0-54 2-47 7-37z m-8 417q23-4 61-4 46 0 80 7t61 25 41 50 15 79q0 39-16 68t-45 46-60 24-69 8q-28 0-73-7 0-28 3-84t2-85q0-15 0-45t-1-44q0-26 1-38z m-302-497l1 53q9 2 48 9t59 15q4 7 7 15t4 19 4 18 1 21 0 19v36q0 548-12 572-2 5-12 8t-25 6-28 4-27 3-17 2l-2 46q55 1 190 6t208 6q13 0 38-1t38 0q39 0 76-7t72-24 60-39 41-59 16-76q0-29-9-54t-22-40-36-32-41-25-47-22q86-20 144-75t57-138q0-56-20-101t-52-72-77-48-91-27-98-8q-25 0-74 2t-74 1q-59 0-171-6t-129-7z" horiz-adv-x="785.7" />

<glyph glyph-name="italic" unicode="&#xe85e;" d="M0-78l10 48q3 1 45 12t62 21q16 19 23 56 1 4 35 162t63 303 29 165v14q-13 7-30 11t-39 4-32 3l10 58q19-2 67-4t84-4 67-1q27 0 55 1t67 4 55 4q-2-22-10-50-17-6-57-16t-60-19q-5-10-8-23t-5-23-4-25-4-24q-15-82-49-234t-43-198q-1-5-7-32t-11-51-9-46-4-32l1-10q9-3 103-18-2-24-9-55-6 0-18-1t-18-1q-16 0-49 6t-48 6q-77 1-115 1-28 0-79-5t-68-7z" horiz-adv-x="571.4" />

<glyph glyph-name="header" unicode="&#xe85f;" d="M939-79q-25 0-74 2t-75 2q-24 0-73-2t-74-2q-14 0-21 12t-7 25q0 17 9 26t22 9 29 4 25 9q18 11 18 78l0 218q0 12-1 17-7 3-28 3h-376q-22 0-29-3 0-5 0-17l-1-207q0-79 21-92 9-5 26-7t32-2 25-8 11-26q0-14-7-26t-20-13q-26 0-78 2t-77 2q-24 0-71-2t-71-2q-13 0-20 12t-7 25q0 17 9 25t20 10 26 4 24 9q18 13 18 80l-1 31v454q0 2 1 14t0 21-1 21-2 24-4 20-6 18-9 10q-8 5-25 6t-29 2-23 7-10 26q0 14 6 26t20 13q26 0 78-2t77-2q23 0 71 2t70 2q14 0 21-13t7-26q0-17-9-25t-22-8-28-2-24-7q-19-12-19-90l1-178q0-12 0-18 7-2 22-2h390q14 0 21 2 1 6 1 18l0 178q0 78-19 90-10 6-33 7t-37 7-14 28q0 14 7 26t21 13q24 0 74-2t73-2q24 0 72 2t72 2q14 0 21-13t7-26q0-17-10-25t-22-8-29-2-24-7q-20-13-20-90l1-526q0-66 19-78 9-6 25-8t30-2 23-9 10-25q0-14-6-26t-20-13z" horiz-adv-x="1000" />

<glyph glyph-name="ajust" unicode="&#xe860;" d="M429 46v608q-83 0-153-41t-110-111-41-152 41-152 110-111 153-41z m428 304q0-117-57-215t-156-156-215-58-216 58-155 156-58 215 58 215 155 156 216 58 215-58 156-156 57-215z" horiz-adv-x="857.1" />

<glyph glyph-name="qrcode" unicode="&#xe861;" d="M214 207v-71h-71v71h71z m0 429v-72h-71v72h71z m429 0v-72h-72v72h72z m-572-571h215v214h-215v-214z m0 428h215v214h-215v-214z m429 0h214v214h-214v-214z m-143-143v-357h-357v357h357z m286-286v-71h-72v71h72z m143 0v-71h-72v71h72z m0 286v-214h-215v71h-71v-214h-71v357h214v-71h71v71h72z m-429 429v-358h-357v358h357z m429 0v-358h-357v358h357z" horiz-adv-x="785.7" />

<glyph glyph-name="tasks" unicode="&#xe862;" d="M571 64h358v72h-358v-72z m-214 286h572v71h-572v-71z m357 286h215v71h-215v-71z m286-465v-142q0-15-11-25t-25-11h-928q-15 0-25 11t-11 25v142q0 15 11 26t25 10h928q15 0 25-10t11-26z m0 286v-143q0-14-11-25t-25-10h-928q-15 0-25 10t-11 25v143q0 15 11 25t25 11h928q15 0 25-11t11-25z m0 286v-143q0-15-11-25t-25-11h-928q-15 0-25 11t-11 25v143q0 14 11 25t25 11h928q15 0 25-11t11-25z" horiz-adv-x="1000" />

<glyph glyph-name="file-code" unicode="&#xe863;" d="M819 638q16-16 27-42t11-50v-642q0-23-15-38t-38-16h-750q-23 0-38 16t-16 38v892q0 23 16 38t38 16h500q22 0 49-11t42-27z m-248 136v-210h210q-5 16-12 23l-175 175q-6 7-23 12z m215-853v572h-232q-23 0-38 15t-16 38v233h-429v-858h715z m-518 500q4 7 12 7t13-3l28-21q7-5 7-12t-3-14l-102-135 102-136q4-6 3-13t-7-12l-28-21q-6-4-13-4t-12 7l-126 168q-8 11 0 21z m447-168q8-10 0-21l-126-168q-4-6-11-7t-14 4l-28 21q-6 5-7 12t3 13l102 136-102 135q-4 7-3 14t7 12l28 21q6 4 14 3t11-7z m-346-257q-7 1-11 7t-3 14l77 464q1 7 7 11t14 3l35-5q7-2 11-8t3-13l-77-464q-1-7-7-11t-13-3z" horiz-adv-x="857.1" />

<glyph glyph-name="put-video" unicode="&#xe864;" d="M513 123v88q0 27-16 27-10 0-19-9v-125q9-8 19-8 16 0 16 27z m103 68h36v19q0 28-18 28t-18-28v-19z m-319 148v-39h-45v-236h-41v236h-44v39h130z m112-70v-205h-37v23q-22-25-43-25-18 0-23 15-4 9-4 30v162h37v-151q0-13 1-14 0-8 8-8 11 0 24 17v156h37z m141-62v-81q0-29-4-41-7-23-30-23-19 0-38 22v-20h-37v275h37v-89q18 22 38 22 23 0 30-24 4-11 4-41z m140-72v-5q0-16-1-24-2-12-9-22-15-22-44-22-29 0-46 21-11 15-11 48v72q0 33 11 48 16 21 44 21t44-21q12-16 12-48v-43h-74v-36q0-28 18-28 14 0 17 14 0 1 1 4t0 9v12h38z m-252 460v-87q0-29-18-29t-18 29v87q0 29 18 29t18-29z m297-398q0 99-10 145-6 25-24 41t-43 19q-75 9-229 9-154 0-230-9-24-2-42-19t-24-41q-11-48-11-145 0-98 11-145 5-24 24-41t42-19q76-9 230-9t229 9q24 2 43 19t23 41q11 47 11 145z m-421 363l50 166h-41l-29-109-29 109h-44l13-39t13-38q20-58 26-89v-112h41v112z m161-45v73q0 32-11 48-16 21-44 21-28 0-43-21-12-16-12-48v-73q0-32 12-48 15-22 43-22 28 0 44 22 11 15 11 48z m101-67h38v207h-38v-158q-12-18-23-18-8 0-9 9 0 2 0 15v152h-38v-164q0-20 4-30 6-16 23-16 21 0 43 26v-23z m281 170v-536q0-66-47-113t-114-48h-535q-67 0-114 48t-47 113v536q0 66 47 113t114 48h535q67 0 114-48t47-113z" horiz-adv-x="857.1" />

<glyph glyph-name="link" unicode="&#xe865;" d="M812 171q0 23-15 38l-116 116q-16 16-38 16-24 0-40-18 1-1 10-10t12-12 9-11 7-14 2-15q0-23-16-38t-38-16q-8 0-15 2t-14 7-11 9-12 12-10 10q-19-17-19-40 0-23 16-38l115-116q15-15 38-15 22 0 38 15l82 81q15 16 15 37z m-392 394q0 22-15 38l-115 115q-16 16-38 16-22 0-38-15l-82-82q-16-15-16-37 0-22 16-38l116-116q15-15 38-15 23 0 40 17-2 2-11 11t-12 12-8 10-7 14-2 16q0 22 15 38t38 15q9 0 16-2t14-7 10-8 12-12 11-11q18 17 18 41z m500-394q0-67-48-113l-82-81q-46-47-113-47-68 0-114 48l-115 115q-46 47-46 114 0 68 49 116l-49 49q-48-49-116-49-67 0-114 47l-116 116q-47 47-47 114t47 113l82 82q47 46 114 46 67 0 114-47l114-116q47-46 47-113 0-69-49-117l49-49q48 49 116 49 67 0 114-47l116-116q47-47 47-114z" horiz-adv-x="928.6" />

<glyph glyph-name="unlink" unicode="&#xe866;" d="M245 141l-143-143q-5-5-13-5-6 0-13 5-5 5-5 13t5 13l143 142q6 5 13 5t13-5q5-5 5-12t-5-13z m94-23v-179q0-8-5-13t-13-5-12 5-5 13v179q0 8 5 13t12 5 13-5 5-13z m-125 125q0-8-5-13t-13-5h-178q-8 0-13 5t-5 13 5 13 13 5h178q8 0 13-5t5-13z m706-72q0-67-48-113l-82-81q-46-47-113-47-68 0-114 48l-186 187q-12 11-24 31l134 10 152-153q15-15 38-15t38 15l82 81q15 16 15 37 0 23-15 38l-153 154 10 133q20-12 31-23l188-188q47-48 47-114z m-345 404l-133-10-152 153q-16 16-38 16-22 0-38-15l-82-82q-16-15-16-37 0-22 16-38l153-153-10-134q-20 12-32 24l-187 187q-47 48-47 114 0 67 47 113l82 82q47 46 114 46 67 0 114-47l186-187q12-12 23-32z m354-46q0-8-5-13t-13-5h-179q-8 0-13 5t-5 13 5 12 13 5h179q8 0 13-5t5-12z m-304 303v-178q0-8-5-13t-13-5-13 5-5 13v178q0 8 5 13t13 5 13-5 5-13z m227-84l-143-143q-6-5-13-5t-12 5q-5 6-5 13t5 13l142 143q6 5 13 5t13-5q5-6 5-13t-5-13z" horiz-adv-x="928.6" />

<glyph glyph-name="attention" unicode="&#xe867;" d="M571 83v106q0 8-5 13t-12 5h-108q-7 0-12-5t-5-13v-106q0-8 5-13t12-6h108q7 0 12 6t5 13z m-1 208l10 257q0 6-5 10-7 6-14 6h-122q-7 0-14-6-5-4-5-12l9-255q0-5 6-9t13-3h103q8 0 13 3t6 9z m-7 522l428-786q20-35-1-70-10-17-26-26t-35-10h-858q-18 0-35 10t-26 26q-21 35-1 70l429 786q9 17 26 27t36 10 36-10 27-27z" horiz-adv-x="1000" />

<glyph glyph-name="attention-alt" unicode="&#xe868;" d="M286 154v-125q0-15-11-25t-25-11h-143q-14 0-25 11t-11 25v125q0 14 11 25t25 10h143q15 0 25-10t11-25z m16 589l-15-429q-1-14-12-25t-25-10h-143q-14 0-25 10t-12 25l-15 429q-1 14 9 25t25 11h179q14 0 25-11t9-25z" horiz-adv-x="357.1" />

<glyph glyph-name="resize" unicode="&#xe869;" d="M716 548l-198-198 198-198 80 80q16 18 39 8 22-9 22-33v-250q0-14-10-25t-26-11h-250q-23 0-32 23-10 21 7 38l81 81-198 198-198-198 80-81q17-17 8-38-10-23-33-23h-250q-15 0-25 11t-11 25v250q0 24 22 33 22 10 39-8l80-80 198 198-198 198-80-80q-11-11-25-11-7 0-14 3-22 9-22 33v250q0 14 11 25t25 11h250q23 0 33-23 9-22-8-38l-80-81 198-198 198 198-81 81q-17 16-7 38 9 23 32 23h250q15 0 26-11t10-25v-250q0-24-22-33-7-3-14-3-14 0-25 11z" horiz-adv-x="857.1" />

<glyph glyph-name="calendar" unicode="&#xe86a;" d="M0-66l0 738q0 35 24 60t60 24l135 0 0 63q0 13 9 22t22 9 22-9 9-22l0-63 188 0 0 63q0 13 9 22t22 9 22-9 9-22l0-63 188 0 0 63q0 13 9 22t22 9 22-9 9-22l0-63 135 0q35 0 60-24t24-60l0-738q0-35-24-60t-60-24l-832 0q-35 0-60 24t-24 60z m63 0q0-10 5-16t16-6l832 0q10 0 16 6t5 16l0 738q0 10-5 16t-16 6l-135 0 0-63q0-13-9-22t-22-9-22 9-9 22l0 63-188 0 0-63q0-13-9-22t-22-9-22 9-9 22l0 63-188 0 0-63q0-13-9-22t-22-9-22 9-9 22l0 63-135 0q-10 0-16-6t-5-16l0-738z m156 135l0 94 125 0 0-94-125 0z m0 156l0 94 125 0 0-94-125 0z m0 156l0 94 125 0 0-94-125 0z m219-312l0 94 125 0 0-94-125 0z m0 156l0 94 125 0 0-94-125 0z m0 156l0 94 125 0 0-94-125 0z m218-312l0 94 125 0 0-94-125 0z m0 156l0 94 125 0 0-94-125 0z m0 156l0 94 125 0 0-94-125 0z" horiz-adv-x="1000" />

<glyph glyph-name="params" unicode="&#xe86b;" d="M0 538q0 76 63 124l0 94q0 39 27 67t66 27 67-27 27-67l0-94q63-48 63-124t-63-125l0-469q0-39-27-67t-67-27-66 27-27 67l0 469q-63 48-63 125z m63 0q0-12 3-26l2-6q4-13 12-23 8-12 20-21t25-12q16-6 31-6t32 6q13 4 25 13 12 8 19 20 8 10 12 23l2 6q4 14 4 26t-4 25q-2 4-2 6-4 13-12 23-7 12-19 21t-25 12q-16 6-32 6t-31-6q-14-4-25-13-10-8-20-20-8-10-12-23l-2-6q-3-14-3-25z m62-594q0-14 9-23t22-9 23 9 9 23l0 441q-16-4-32-4t-31 4l0-441z m0 746q16 4 31 4t32-4l0 66q0 14-9 23t-23 8-22-8-9-23l0-66z m219-527q0 76 62 125l0 468q0 39 28 67t66 27 66-27 28-67l0-468q62-49 62-125t-62-125l0-94q0-39-28-67t-66-27-66 27-28 67l0 94q-62 48-62 125z m62 0q0-12 4-26l2-6q4-13 12-23 8-12 19-21t26-12q15-6 31-6t31 6q14 4 26 13 11 8 19 20 8 10 12 23 0 2 2 6 4 14 4 26t-4 25l-2 6q-4 13-12 23-8 12-19 20-12 10-26 13-15 6-31 6t-31-6q-14-3-26-13-9-8-19-20-8-10-12-23l-2-6q-4-14-4-25z m63-219q0-14 9-23t22-9 22 9 9 23l0 66q-15-4-31-4t-31 4l0-66z m0 371q15 4 31 4t31-4l0 441q0 14-9 23t-22 8-22-8-9-23l0-441z m219 223q0 76 62 124l0 94q0 39 27 67t67 27 66-27 27-67l0-94q63-48 63-124t-63-125l0-469q0-39-27-67t-66-27-67 27-27 67l0 469q-62 48-62 125z m62 0q0-12 4-26l2-6q4-13 12-23 7-12 19-21t25-12q16-6 32-6t31 6q14 4 25 13 12 8 20 20 8 10 12 23 0 2 2 6 3 14 3 26t-3 25l-2 6q-4 13-12 23-8 12-20 20-11 9-25 13-16 6-31 6t-32-6q-13-4-25-13-12-8-19-20-8-10-12-23l-2-6q-4-14-4-25z m62-594q0-14 9-23t23-9 22 9 9 23l0 441q-16-4-31-4t-32 4l0-441z m0 746q16 4 32 4t31-4l0 66q0 14-9 23t-22 8-23-8-9-23l0-66z" horiz-adv-x="1000" />

<glyph glyph-name="music" unicode="&#xe86c;" d="M10-45q-22 57 5 118 37 76 131 107 39 14 78 14 69 0 119-37l0 537q0 23 15 40t36 22l531 94 12 0q24 0 41-16 22-17 22-47l0-656q0-35-16-66-37-76-131-108-39-13-78-13-60 0-107 28t-65 77q-21 57 6 117 37 77 131 108 39 14 78 14 68 0 119-38l0 379-519-91-12 0 0-500q0-36-16-67-37-76-131-107-39-14-78-14-60 0-107 28t-64 77z m57 22q15-41 66-58t107 3 85 62 13 83-66 57-106-2-85-62-14-83z m337 623l531 94 0 93-531-93 0-94z m256-529q15-41 66-58t107 3 85 62 13 83-66 57-107-3-84-61-14-83z" horiz-adv-x="1000" />

<glyph glyph-name="sound" unicode="&#xe86d;" d="M0 163q0 39 27 66l98 98 0 429q0 30 16 53t43 33q15 8 35 8 39 0 66-27l688-688q45-45 19-101-10-28-33-43t-53-16l-429 0-98-98q-27-27-66-27t-67 27l-219 219q-27 27-27 67z m63 0q0-14 9-22l219-219q8-10 22-10t21 10l98 98 2 0-264 264 0-2-98-98q-9-8-9-21z m123 150l277-277q12 2 14 2l377 0-666 666 0-377q0-2-2-14z m2 433l708-708 10 0q22 0 30 19t-8 33l-688 688q-8 9-21 9-6 0-12-1-19-8-19-30l0-10z m343 73q0 13 9 22t23 9q181 0 309-128t128-309q0-14-9-23t-22-9-23 9-9 23q0 154-110 264t-264 110q-14 0-23 9t-9 23z m16-110q0 16 16 16 128 0 220-92t92-220q0-16-16-16t-15 16q0 117-82 199t-199 82q-16 0-16 15z" horiz-adv-x="1001" />

<glyph glyph-name="heart" unicode="&#xe86e;" d="M0 476q0 122 88 210 84 84 204 86t208-78q88 80 208 78t204-86q88-88 88-210t-88-210q-4-4-346-342-27-27-66-27t-66 27q-2 0-346 342-88 88-88 210z m63 0q0-97 70-165l346-342q21-23 43 0l345 342q70 68 70 165t-70 165q-66 66-160 68t-164-60l-43-39-43 39q-70 62-164 60t-160-68q-70-68-70-165z m93 7q0 55 39 94t94 39q16 0 16-16t-16-16q-41 0-71-29t-30-72q0-16-16-16t-16 16z" horiz-adv-x="1000" />

<glyph glyph-name="lightbulb" unicode="&#xe86f;" d="M0 506q0 143 101 243t243 101 243-101 101-243q0-54-30-121t-71-140-56-116q-15-39-31-94t-24-82-27-53-42-39-63-11-64 11-41 39-26 53-25 82-32 94q-13 43-55 117t-72 139-29 121z m63 0q0-64 82-213 37-64 52-99l293 0q16 35 53 99 82 151 82 213 0 117-82 199t-199 82-199-82-82-199z m93 0q0 78 55 133t133 55q15 0 15-16t-15-16q-65 0-111-45t-45-111q0-15-16-15t-16 15z m67-375q11-33 19-60l213 27q2 12 10 33l-242 0z m29-90q10-35 18-60l154 19q6 16 12 38 2 5 4 15t3 12z m29-89q12-26 25-33t38-7q29 0 43 10t27 45z" horiz-adv-x="687" />

<glyph glyph-name="mobile" unicode="&#xe870;" d="M0-56l0 812q0 39 27 67t67 27l500 0q39 0 66-27t28-67l0-812q0-39-28-67t-66-27l-500 0q-39 0-67 27t-27 67z m63 0q0-14 8-23t23-9l500 0q13 0 22 9t9 23l0 62-562 0 0-62z m0 94l562 0 0 624-562 0 0-624z m0 656l562 0 0 62q0 14-9 23t-22 8l-500 0q-14 0-23-8t-8-23l0-62z m218 47q0 15 16 15l94 0q15 0 15-15t-15-16l-94 0q-16 0-16 16z m32-782q0 16 15 16l31 0q16 0 16-16t-16-15l-31 0q-15 0-15 15z" horiz-adv-x="687" />

<glyph glyph-name="key" unicode="&#xe871;" d="M0-88l0 94q0 20 18 39l379 379q-22 57-22 114 0 128 92 220t221 92 220-92 92-220-92-221-220-92q-57 0-114 22l-74-73 0-74q0-25-19-44t-43-18l-63 0 0-63q0-25-19-44t-43-19l-73 0-45-44q-17-18-39-18l-93 0q-26 0-44 19t-19 43z m63 0l87 0 45 45q18 18 45 18l73 0 0 63q0 25 18 43t44 19l63 0 0 74q0 26 17 43l61 61 35 35 10 10q60-35 127-35 103 0 176 73t73 177-73 176-176 73-177-73-73-176q0-67 35-127l-45-45-365-364 0-90z m562 713q0 4 2 10 23 65 88 88 15 6 27-4 74-53 127-127 6-8 6-17 0-4-2-10-23-65-88-88-15-6-27 4-74 53-127 127-6 8-6 17z m31 0q51-70 119-119 51 18 69 69-49 68-119 119-51-18-69-69z" horiz-adv-x="1000" />

<glyph glyph-name="shop" unicode="&#xe872;" d="M0 413l0 31q0 31 20 56l93 125q4 6 12 14l0 148q0 26 19 44t44 19l624 0q26 0 44-19t19-44l0-148q8-8 12-14l93-125q20-25 20-56l0-31q0-40-27-67t-67-27l0-407q0-25-18-43t-44-19l-688 0q-25 0-44 19t-18 43l0 407q-39 0-67 27t-27 67z m63 0q0-14 8-23t23-9l58 0 125 219-89 0q-16 0-26-12l-94-125q-5-9-5-19l0-31z m93-501l203 0 0 313q0 14 9 22t23 9l234 0q14 0 22-9t9-22l0-313 188 0 0 407-688 0 0-407z m32 469l130 0 63 219-68 0z m0 281l624 0 0 125-624 0 0-125z m164-281l132 0 0 219-70 0z m39-469l234 0 0 313-234 0 0-313z m125 469l132 0-62 219-70 0 0-219z m103 219l63-219 130 0-124 219-69 0z m104 0l125-219 58 0q14 0 23 9t8 23l0 31q0 10-5 19l-94 125q-10 12-26 12l-89 0z" horiz-adv-x="1000" />

<glyph glyph-name="truck" unicode="&#xe873;" d="M0 319l0 343q0 40 27 67t67 27l469 0q39 0 66-27t27-67l0-62 125 0q51 0 78-41l125-187q16-24 16-53l0-188q0-39-27-66t-67-27l-35 0q-12-42-45-68t-76-26-76 26-45 68l-164 0q-12-42-45-68t-76-26-76 26-45 68l-35 0q-40 0-67 27t-27 66l0 94q-39 0-67 27t-27 67z m63 0q0-14 8-23t23-8l469 0q13 0 22 8t9 23l0 343q0 14-9 23t-22 9l-469 0q-14 0-23-9t-8-23l0-343z m93-188q0-13 9-22t23-9l35 0q11 41 45 67t76 27 76-27 45-67l164 0q12 41 45 67t76 27 76-27 45-67l35 0q14 0 23 9t8 22l0 188q0 10-5 17l-125 188q-8 14-26 14l-125 0 0-219q0-39-27-67t-66-27l-407 0 0-94z m125-62q0-26 19-44t44-19 44 19 18 44-18 44-44 18-44-18-19-44z m407 0q0-26 18-44t44-19 44 19 18 44-18 44-44 18-44-18-18-44z m0 219l0 187q0 14 8 22t23 9l31 0q18 0 25-13l94-141q6-8 6-18l0-46q0-14-9-23t-22-9l-125 0q-14 0-23 9t-8 23z m31 0l125 0 0 46-94 141-31 0 0-187z" horiz-adv-x="1000" />

<glyph glyph-name="attach" unicode="&#xe874;" d="M0 99q0 91 64 155l456 451q82 82 199 82t199-82 82-199-82-199l-344-342q-21-23-44-1t1 44l338 340q65 63 65 153t-65 156-155 64-153-64l-454-448q-44-45-44-109t45-110 111-46 109 45l457 451q27 27 27 66t-27 67-66 27-67-27l-341-344q-24-22-45 1t0 44l341 344q47 44 112 44t110-45 46-111-45-111l-457-449q-64-65-155-65t-154 64-64 154z" horiz-adv-x="1000" />

<glyph glyph-name="lock" unicode="&#xe875;" d="M0 131l0 219q0 39 27 66t67 28l0 125q0 117 82 199t199 82 199-82 82-199l0-125q39 0 67-28t27-66l0-219q0-117-82-199t-199-82l-188 0q-117 0-199 82t-82 199z m63 0q0-90 64-154t154-65l188 0q90 0 154 65t65 154l0 219q0 14-9 22t-23 9l-562 0q-14 0-23-9t-8-22l0-219z m93 313l63 0 0 125q0 64 46 110t110 46 110-46 46-110l0-125 63 0 0 125q0 90-65 154t-154 64-154-64-65-154l0-125z m94 0l250 0 0 125q0 52-36 89t-89 36-89-36-36-89l0-125z m63-250q0 25 18 44t44 18 44-18 19-44q0-28-22-84-14-41-41-41t-41 41q-21 56-21 84z" horiz-adv-x="750" />

<glyph glyph-name="paper-plane" unicode="&#xe876;" d="M0 191q-2 18 14 28l937 625q8 6 18 6t18-6q15-10 13-31l-156-938q-4-13-16-21-7-4-15-4-6 0-12 2l-303 121-64-107q-10-16-28-16t-27 16l-115 201-244 97q-18 8-20 27z m98 11l189-77q2-2 5-3l3-2 527 564z m221-104l87-152 504 787z m183-62q12-2 20-4l265-108 125 748z" horiz-adv-x="1000" />

<glyph glyph-name="cloud" unicode="&#xe877;" d="M0 178q0 55 27 102t75 74q-8 21-8 43 0 58 41 99t99 42q20 0 43-8 34 74 102 119t152 45q110 0 189-73t91-181q82-16 135-80t54-151q0-97-68-166t-166-68l-563 0q-84 0-143 60t-60 143z m63 0q0-58 41-99t99-41l563 0q70 0 121 50t50 121q0 63-39 110t-99 58q-35 8-42 15t-9 42q-8 84-70 141t-147 56q-62 0-117-34t-80-93q-10-19-12-24t-8-13-15-6-22 6q-21 10-43 8-33 0-55-22t-23-56q0-10 4-24 14-33 10-44t-37-30q-70-41-70-121z" horiz-adv-x="1000" />

<glyph glyph-name="database-1" unicode="&#xe878;" d="M729 524l0-330q0-151-106-258t-258-107-258 107-107 258l0 328 1 2q7 145 112 246t252 101 252-101 112-246z m-364-460q85 0 156 47t104 121l0 20q-107-110-260-110-154 0-261 110l0-20q34-75 105-121t156-47z m0 703q-107 0-184-76t-77-184 77-185 184-76 184 76 76 185-76 184-184 76z m0-834q88 0 156 53t93 136q-101-110-249-110t-249 110q24-83 93-136t156-53z" horiz-adv-x="729" />

<glyph glyph-name="sort-number-up" unicode="&#xe879;" d="M751 117q0 35-24 65t-58 30q-29 0-46-21t-18-52 21-53 58-22q28 0 48 15t19 38z m-340-71q0-6-6-13l-178-178q-5-5-13-5-6 0-13 5l-178 179q-8 9-4 19 4 11 17 11h107v768q0 8 5 13t13 5h107q8 0 13-5t5-13v-768h107q8 0 13-5t5-13z m418 39q0-35-7-68t-23-64-38-53-55-36-71-14q-35 0-60 9-14 4-24 8l22 63q8-4 17-6 21-7 42-7 47 0 75 33t37 81h-1q-11-13-34-21t-47-8q-59 0-97 40t-37 97q0 58 40 99t101 41q69 0 114-53t46-141z m-17 400v-64h-261v64h93v241q0 4 0 11t1 9v9h-2l-3-7q-5-7-15-17l-35-32-45 48 107 103h68v-365h92z" horiz-adv-x="857.1" />

<glyph glyph-name="sort-number-down" unicode="&#xe87a;" d="M751 689q0 35-24 64t-58 30q-29 0-46-21t-18-52 21-53 58-21q28 0 48 15t19 38z m-340-643q0-6-6-13l-178-178q-5-5-13-5-6 0-13 5l-178 179q-8 9-4 19 4 11 17 11h107v768q0 8 5 13t13 5h107q8 0 13-5t5-13v-768h107q8 0 13-5t5-13z m401-132v-64h-261v64h93v241q0 4 0 10t1 10v9h-2l-3-7q-5-7-15-17l-35-33-45 48 107 104h68v-365h92z m17 742q0-34-7-67t-23-64-38-53-55-37-71-14q-35 0-60 9-14 5-24 9l22 63q8-4 17-6 21-8 42-8 47 0 75 33t37 81h-1q-11-13-34-20t-47-8q-59 0-97 40t-37 96q0 59 40 99t101 41q69 0 114-53t46-141z" horiz-adv-x="857.1" />

<glyph glyph-name="certificate" unicode="&#xe87b;" d="M768 350l77-75q17-16 11-39-7-23-29-29l-105-27 30-103q6-23-11-39-16-18-39-11l-104 30-27-105q-5-23-28-30-7-1-11-1-17 0-28 13l-75 77-76-77q-15-17-39-12-23 7-28 30l-27 105-104-30q-23-7-39 11-17 16-10 39l29 103-105 27q-22 6-29 29-6 23 11 39l77 75-77 75q-17 16-11 39 7 23 29 29l105 27-29 103q-7 23 10 39 16 18 39 11l104-29 27 104q5 23 28 29 23 7 39-11l76-77 75 77q16 17 39 11 23-6 28-29l27-104 104 29q23 7 39-11 17-16 11-39l-30-103 105-27q22-6 29-29 6-23-11-39z" horiz-adv-x="857.1" />

<glyph glyph-name="logout" unicode="&#xe87c;" d="M357 46q0-2 1-11t0-14-2-14-5-11-12-3h-178q-67 0-114 47t-47 114v392q0 67 47 114t114 47h178q8 0 13-5t5-13q0-2 1-11t0-15-2-13-5-11-12-3h-178q-37 0-63-27t-27-63v-392q0-37 27-63t63-27h174t6 0 7-2 4-3 4-5 1-8z m518 304q0-14-11-25l-303-304q-11-10-25-10t-25 10-11 25v161h-250q-14 0-25 11t-11 25v214q0 15 11 25t25 11h250v161q0 14 11 25t25 10 25-10l303-304q11-10 11-25z" horiz-adv-x="928.6" />

<glyph glyph-name="spin5" unicode="&#xe87d;" d="M462 850c-6 0-11-5-11-11l0-183 0 0c0-6 5-11 11-11l69 0c1 0 1 0 1 0 7 0 12 5 12 11l0 183 0 0c0 6-5 11-12 11l-69 0c0 0 0 0-1 0z m250-47c-4 1-8-2-10-5l-91-158 0 0c-4-6-2-13 4-16l60-34c0-1 0-1 0-1 6-3 13-1 16 4l91 158c3 6 2 13-4 16l-61 35c-1 1-3 1-5 1z m-428-2c-2 0-4-1-6-2l-61-35c-5-3-7-10-4-16l91-157c0 0 0 0 0 0 3-6 10-8 16-5l61 35c5 4 7 11 4 16l-91 157c0 1 0 1 0 1-2 4-6 6-10 6z m620-163c-2 0-4 0-6-1l-157-91c0 0 0 0 0 0-6-3-8-10-5-16l35-61c4-5 11-7 16-4l157 91c1 0 1 0 1 0 6 3 7 11 4 16l-35 61c-2 4-6 6-10 5z m-810-4c-5 0-9-2-11-6l-35-61c-3-5-1-12 4-15l158-91 0 0c6-4 13-2 16 4l35 60c0 0 0 0 0 0 3 6 1 13-4 16l-158 91c-2 1-4 2-5 2z m712-235l0 0c-6 0-11-5-11-11l0-69c0-1 0-1 0-1 0-7 5-12 11-12l183 0 0 0c6 0 11 5 11 12l0 69c0 0 0 0 0 1 0 6-5 11-11 11l-183 0z m-794-5l0 0c-7 0-12-5-12-12l0-69c0 0 0 0 0-1 0-6 5-11 12-11l182 0 0 0c6 0 11 5 11 11l0 69c0 1 0 1 0 1 0 7-5 12-11 12l-182 0z m772-153c-4 0-8-2-10-6l-34-60c-1 0-1 0-1 0-3-6-1-13 4-16l158-91c6-3 13-1 16 4l35 61c3 5 1 12-4 15l-158 92 0 0c-2 1-4 1-6 1z m-566-5c-1 0-3 0-5-1l-157-91c0 0-1 0-1 0-5-3-7-10-4-16l35-61c3-5 10-7 16-4l157 91c0 0 0 0 0 0 6 3 8 10 5 16l-35 61c-3 3-7 6-11 5z m468-121c-2 0-4 0-6-1l-61-35c-5-4-7-11-4-16l91-157c0-1 0-1 0-1 3-6 11-7 16-4l61 35c5 3 7 10 4 16l-91 157c0 0 0 0 0 0-2 4-6 6-10 6z m-367-2c-4 0-8-2-10-6l-91-158c-3-6-1-13 4-16l61-35c5-3 12-1 15 4l92 158 0 0c3 6 1 13-5 16l-60 35c0 0 0 0 0 0-2 1-4 1-6 2z m149-58c-7 0-12-5-12-11l0-183 0 0c0-6 5-11 12-11l69 0c0 0 0 0 1 0 6 0 11 5 11 11l0 183 0 0c0 6-5 11-11 11l-69 0c-1 0-1 0-1 0z" horiz-adv-x="1000" />

<glyph glyph-name="star-1" unicode="&#xe87e;" d="M929 489q0-12-15-27l-203-197 48-279q1-4 1-12 0-11-6-19t-17-9q-10 0-22 7l-251 132-250-132q-13-7-23-7-11 0-17 9t-6 19q0 4 1 12l48 279-203 197q-14 15-14 27 0 21 31 26l280 40 126 254q11 23 27 23t28-23l125-254 280-40q32-5 32-26z" horiz-adv-x="928.6" />

<glyph glyph-name="star-empty" unicode="&#xe87f;" d="M634 290l171 165-235 35-106 213-105-213-236-35 171-165-41-235 211 111 211-111z m295 199q0-12-15-27l-203-197 48-279q1-4 1-12 0-28-23-28-10 0-22 7l-251 132-250-132q-13-7-23-7-11 0-17 9t-6 19q0 4 1 12l48 279-203 197q-14 15-14 27 0 21 31 26l280 40 126 254q11 23 27 23t28-23l125-254 280-40q32-5 32-26z" horiz-adv-x="928.6" />

<glyph glyph-name="star-half-alt" unicode="&#xe880;" d="M662 316l143 139-198 29-37 6-17 34-89 179v-537l33-17 178-94-34 198-7 37z m252 146l-202-197 47-279q3-19-3-29t-19-11q-9 0-22 7l-251 132-250-132q-13-7-23-7-12 0-19 11t-3 29l48 279-203 197q-18 18-13 33t30 20l280 40 126 254q11 23 27 23 16 0 28-23l125-254 280-40q25-4 30-20t-13-33z" horiz-adv-x="928.6" />

<glyph glyph-name="star-half" unicode="&#xe881;" d="M464 832v-747l-250-132q-13-7-23-7-11 0-17 9t-6 19q0 4 1 12l48 279-203 197q-14 15-14 27 0 21 31 26l280 40 126 254q11 23 27 23z" horiz-adv-x="500" />

<glyph glyph-name="cw-circled" unicode="&#xe882;" d="M0 350q0 207 147 354t353 146 354-146 146-354-146-354-354-146-353 146-147 354z m211 0q0-119 85-204t204-85q80 0 146 39t104 106l-102 58q-21-39-61-62t-87-24q-70 0-121 51t-51 121 51 121 121 51q61 0 107-37l-76-55 258-86 0 270-84-61q-84 86-205 86-119 0-204-85t-85-204z" horiz-adv-x="1000" />

<glyph glyph-name="quiz" unicode="&#xe883;" d="M0 350q0 95 37 182t100 149 149 100 183 37q95 0 182-37t149-100 100-149 37-182q0-95-37-182t-100-150-149-100-182-37q-96 0-183 37t-149 100-100 150-37 182z m117 0q0-71 28-137t75-112 112-75 137-28 136 28 112 75 75 112 28 137q0 95-47 176t-128 128-176 47-177-47-128-128-47-176z m216 176l31-101q45 29 93 29 49 0 49-23 0-4-2-8t-3-5-6-5-7-5-8-4l-8-4-40-21q-22-12-28-25t-6-37v-37h117v16q0 7 0 10t3 6 6 5q1 1 11 5t17 8 19 11 18 13q19 17 29 37t11 55q0 49-42 83t-106 34q-83 0-148-37z m48-334q0-32 21-49t55-17q33 0 54 17t20 49-20 49-54 18q-35 0-55-18t-21-49z" horiz-adv-x="937.5" />

<glyph glyph-name="cancel" unicode="&#xe884;" d="M724 112q0-22-15-38l-76-76q-16-15-38-15t-38 15l-164 165-164-165q-16-15-38-15t-38 15l-76 76q-16 16-16 38t16 38l164 164-164 164q-16 16-16 38t16 38l76 76q16 16 38 16t38-16l164-164 164 164q16 16 38 16t38-16l76-76q15-15 15-38t-15-38l-164-164 164-164q15-15 15-38z" horiz-adv-x="785.7" />

<glyph glyph-name="quote2" unicode="&#xe885;" d="M146 680q146 0 184-146 38-140-40-302-80-168-224-204-32-8-66-8l0 70q112 0 182 108 54 86 26 146-16 36-62 36-60 0-103 44t-43 106 43 106 103 44z m420 0q146 0 184-146 38-140-40-302-80-168-224-204-32-8-66-8l0 70q112 0 182 108 54 86 26 146-16 36-62 36-60 0-103 44t-43 106 43 106 103 44z" horiz-adv-x="762" />

<glyph glyph-name="quote" unicode="&#xe886;" d="M429 314v-214q0-45-32-76t-76-31h-214q-44 0-76 31t-31 76v393q0 58 23 111t61 91 91 61 111 23h35q15 0 26-11t10-25v-72q0-14-10-25t-26-10h-35q-59 0-101-42t-42-101v-18q0-22 16-38t37-16h125q45 0 76-31t32-76z m500 0v-214q0-45-32-76t-76-31h-214q-44 0-76 31t-31 76v393q0 58 23 111t61 91 91 61 111 23h35q15 0 26-11t10-25v-72q0-14-10-25t-26-10h-35q-59 0-101-42t-42-101v-18q0-22 15-38t38-16h125q45 0 76-31t32-76z" horiz-adv-x="928.6" />
</font>
</defs>
</svg>